<?xml version="1.0" encoding="UTF-8" standalone="no"?>
<svg
   inkscape:version="1.1.1 (3bf5ae0d25, 2021-09-20, custom)"
   id="svg8"
   version="1.1"
   viewBox="0 0 67.733332 33.866668"
   height="128"
   width="256"
   sodipodi:docname="3tre3.svg"
   xmlns:inkscape="http://www.inkscape.org/namespaces/inkscape"
   xmlns:sodipodi="http://sodipodi.sourceforge.net/DTD/sodipodi-0.dtd"
   xmlns="http://www.w3.org/2000/svg"
   xmlns:svg="http://www.w3.org/2000/svg"
   xmlns:rdf="http://www.w3.org/1999/02/22-rdf-syntax-ns#"
   xmlns:cc="http://creativecommons.org/ns#"
   xmlns:dc="http://purl.org/dc/elements/1.1/">
  <defs
     id="defs2">
    <style
       id="style825">.cls-1{fill:#ffffff;}</style>
  </defs>
  <sodipodi:namedview
     units="px"
     showgrid="false"
     inkscape:document-rotation="0"
     inkscape:current-layer="layer1"
     inkscape:document-units="px"
     inkscape:cy="80.981394"
     inkscape:cx="139.79762"
     inkscape:zoom="2.8648556"
     inkscape:pageshadow="2"
     inkscape:pageopacity="0"
     borderopacity="1.0"
     bordercolor="#666666"
     pagecolor="#ffffff"
     id="base"
     inkscape:window-width="1920"
     inkscape:window-height="1011"
     inkscape:window-x="0"
     inkscape:window-y="0"
     inkscape:window-maximized="1"
     inkscape:pagecheckerboard="0"
     inkscape:lockguides="true" />
  <metadata
     id="metadata5">
    <rdf:RDF>
      <cc:Work
         rdf:about="">
        <dc:format>image/svg+xml</dc:format>
        <dc:type
           rdf:resource="http://purl.org/dc/dcmitype/StillImage" />
      </cc:Work>
    </rdf:RDF>
  </metadata>
  <g
     id="layer1"
     inkscape:groupmode="layer"
     inkscape:label="Layer 1">
    <rect
       style="fill:#1976d2;stroke-width:3.47907;stroke-linecap:round;paint-order:markers stroke fill;fill-opacity:1"
       id="rect848"
       width="67.733337"
       height="33.866669"
       x="-1.7011719e-06"
       y="-8.5058593e-07" />
    <g
       id="g842"
       transform="matrix(0.05067281,0,0,0.05067281,21.166627,9.2641538)">
      <path
         class="cls-1"
         d="M 324.23,262 192.86,130.63 a 8.52,8.52 0 0 0 -12,0 L 49.49,262 a 8.5,8.5 0 0 0 0,12 l 131.36,131.37 a 8.52,8.52 0 0 0 12,0 L 324.23,274 a 8.52,8.52 0 0 0 0,-12 z m -137.08,67.83 c -31.42,0 -41.89,-21.47 -44.27,-27.69 a 1.93,1.93 0 0 1 1,-2.42 l 21.31,-10.42 a 1.94,1.94 0 0 1 2.74,1.29 c 1.15,5 5.26,15.81 19.1,15.81 10,0 17.21,-5.64 17.21,-15.77 0,-10.13 -7.66,-17.5 -17.21,-17.5 a 15.56,15.56 0 0 0 -2.92,0.28 1.94,1.94 0 0 1 -2.29,-1.91 v -13.35 a 1.94,1.94 0 0 1 1.94,-1.94 h 4 c 7.26,0 14.38,-6.41 14.32,-15.14 0,-6.81 -5.56,-12.28 -12.33,-12.94 -13.26,-1.3 -18.09,8.13 -19.6,12.49 a 2,2 0 0 1 -2.69,1.13 l -17.84,-8.68 a 1.94,1.94 0 0 1 -1,-2.38 c 2,-5.75 10.69,-24.52 39,-24.52 22.71,0 39.19,14.46 39.19,34.71 0,9.83 -4,17.35 -10.55,22.42 9.25,5.64 15.18,14.75 15.18,27.33 -0.04,22.85 -18.69,39.2 -44.29,39.2 z"
         transform="translate(-47.01,-105.16)"
         id="path829" />
      <path
         class="cls-1"
         d="m 417.45,168.76 -61.12,-61.12 a 8.53,8.53 0 0 0 -12,0 l -61.12,61.12 a 8.52,8.52 0 0 0 0,12 l 61.09,61.14 a 8.53,8.53 0 0 0 12,0 l 61.12,-61.12 a 8.53,8.53 0 0 0 0.03,-12.02 z m -67,37.55 c -18.74,0 -22.87,-15 -22.87,-15 l 12.84,-6.28 c 0,0 0.81,9.3 10,9.3 5.09,0 8.78,-2.88 8.78,-8 a 8.65,8.65 0 0 0 -8.78,-8.93 8.44,8.44 0 0 0 -2.66,0.44 v -9.07 h 3 a 7.61,7.61 0 0 0 7.3,-7.68 c 0,-3.91 -3.62,-6.71 -7.53,-6.71 -7.67,0 -9.07,7.52 -9.07,7.52 l -10.92,-5.31 c 0,0 3.1,-13.35 20.14,-13.35 11.59,0 20,7.37 20,17.7 a 13.92,13.92 0 0 1 -5.39,11.44 15.6,15.6 0 0 1 7.71,13.94 c 0,11.68 -9.48,19.99 -22.54,19.99 z"
         transform="translate(-47.01,-105.16)"
         id="path831" />
      <path
         class="cls-1"
         d="m 545.8,297.12 -96.29,-96.28 a 8.44,8.44 0 0 0 -11.93,0 l -96.29,96.28 a 8.47,8.47 0 0 0 0,11.94 l 96.29,96.29 a 8.46,8.46 0 0 0 11.93,0 l 96.29,-96.29 a 8.46,8.46 0 0 0 0,-11.94 z m -102,52.64 c -27.74,0 -33.85,-22.16 -33.85,-22.16 l 19,-9.28 c 0,0 1.2,13.76 14.74,13.76 7.53,0 13,-4.26 13,-11.9 a 12.81,12.81 0 0 0 -13,-13.21 12.44,12.44 0 0 0 -3.93,0.65 v -13.43 h 4.47 A 11.24,11.24 0 0 0 455,282.84 c 0,-5.79 -5.35,-9.93 -11.14,-9.93 -11.35,0 -13.42,11.13 -13.42,11.13 l -16.16,-7.86 c 0,0 4.58,-19.76 29.8,-19.76 17.14,0 29.59,10.92 29.59,26.2 a 20.58,20.58 0 0 1 -8,16.92 23.06,23.06 0 0 1 11.46,20.64 c 0.04,17.25 -14.04,29.58 -33.36,29.58 z"
         transform="translate(-47.01,-105.16)"
         id="path833" />
    </g>
    <rect
       style="fill:#1565c0;fill-opacity:1;stroke-width:1.62136;stroke-linecap:round;paint-order:markers stroke fill"
       id="rect2771"
       width="67.733337"
       height="7.3554125"
       x="-1.7011719e-06"
       y="-8.5058593e-07" />
    <rect
       style="fill:#ffffff;fill-opacity:1;stroke-width:1.07006;stroke-linecap:round;paint-order:markers stroke fill"
       id="rect6285"
       width="67.733337"
       height="3.203773"
       x="-1.7011719e-06"
       y="30.662895" />
  </g>
</svg>
