<?xml version="1.0" encoding="UTF-8" standalone="no"?>
<svg
   inkscape:version="1.1.1 (3bf5ae0d25, 2021-09-20, custom)"
   id="svg8"
   version="1.1"
   viewBox="0 0 67.733332 33.866668"
   height="128"
   width="256"
   sodipodi:docname="feedly.svg"
   xmlns:inkscape="http://www.inkscape.org/namespaces/inkscape"
   xmlns:sodipodi="http://sodipodi.sourceforge.net/DTD/sodipodi-0.dtd"
   xmlns="http://www.w3.org/2000/svg"
   xmlns:svg="http://www.w3.org/2000/svg"
   xmlns:rdf="http://www.w3.org/1999/02/22-rdf-syntax-ns#"
   xmlns:cc="http://creativecommons.org/ns#"
   xmlns:dc="http://purl.org/dc/elements/1.1/">
  <defs
     id="defs2" />
  <sodipodi:namedview
     units="px"
     showgrid="false"
     inkscape:document-rotation="0"
     inkscape:current-layer="layer1"
     inkscape:document-units="px"
     inkscape:cy="53.76895"
     inkscape:cx="129.63473"
     inkscape:zoom="4.0729826"
     inkscape:pageshadow="2"
     inkscape:pageopacity="0"
     borderopacity="1.0"
     bordercolor="#666666"
     pagecolor="#ffffff"
     id="base"
     inkscape:window-width="1920"
     inkscape:window-height="1011"
     inkscape:window-x="0"
     inkscape:window-y="0"
     inkscape:window-maximized="1"
     inkscape:pagecheckerboard="0" />
  <metadata
     id="metadata5">
    <rdf:RDF>
      <cc:Work
         rdf:about="">
        <dc:format>image/svg+xml</dc:format>
        <dc:type
           rdf:resource="http://purl.org/dc/dcmitype/StillImage" />
      </cc:Work>
    </rdf:RDF>
  </metadata>
  <g
     id="layer1"
     inkscape:groupmode="layer"
     inkscape:label="Layer 1">
    <rect
       style="fill:#f6f7f8;stroke-width:3.47907;stroke-linecap:round;paint-order:markers stroke fill;fill-opacity:1"
       id="rect848"
       width="67.733337"
       height="33.866669"
       x="-1.7011719e-06"
       y="-8.5058593e-07" />
    <path
       id="path76"
       style="fill:#2bb24c;fill-opacity:1;fill-rule:evenodd;stroke:none;stroke-width:0.760145"
       d="m 33.86444,5.509623 c -0.715008,0 -1.430459,0.277241 -1.973112,0.829924 l -9.911586,10.094199 c -1.0841,1.105366 -1.0841,2.912737 0,4.017488 l 7.072917,7.205055 c 0.49343,0.436742 1.136161,0.700755 1.840978,0.700755 h 5.941606 c 0.773668,0 1.474696,-0.31917 1.98202,-0.835863 l 6.936329,-7.064011 c 1.0841,-1.105363 1.0841,-2.914833 0,-4.01897 L 35.836067,6.339547 C 35.293714,5.786864 34.579448,5.509623 33.86444,5.509623 Z m 0,5.049326 c 0.101916,0 0.202992,0.03972 0.280601,0.118773 l 1.41488,1.441604 c 0.155228,0.157469 0.155228,0.415609 0,0.573078 l -6.921482,7.049163 c -0.07369,0.07381 -0.173649,0.120257 -0.28357,0.120257 h -0.846256 c -0.100267,0 -0.192712,-0.03821 -0.262784,-0.100956 l -1.011053,-1.027385 c -0.154625,-0.156865 -0.154625,-0.414995 0,-0.573078 l 7.347579,-7.482683 c 0.07761,-0.07905 0.180168,-0.118773 0.282085,-0.118773 z m 0,6.044048 c 0.102143,0 0.204779,0.03855 0.282085,0.117289 l 1.413396,1.441604 c 0.155228,0.157468 0.155228,0.415609 0,0.573078 l -3.955132,4.027884 c -0.07309,0.0738 -0.17365,0.120255 -0.28357,0.120255 h -0.847741 c -0.100267,0 -0.192712,-0.03821 -0.262785,-0.100955 l -1.008083,-1.02739 c -0.154626,-0.158095 -0.154626,-0.416218 0,-0.573074 l 4.379745,-4.461402 c 0.07761,-0.07874 0.179942,-0.117289 0.282085,-0.117289 z m 0,6.041082 c 0.102067,0 0.203596,0.03973 0.280601,0.118773 l 1.41488,1.440118 c 0.155228,0.157464 0.155228,0.416476 0,0.574564 l -0.988783,1.0066 c -0.07249,0.0738 -0.173046,0.120255 -0.28357,0.120255 h -0.846256 c -0.100871,0 -0.192991,-0.03821 -0.264269,-0.100955 l -1.008084,-1.02739 c -0.154021,-0.156864 -0.154021,-0.414994 0,-0.573074 l 1.413396,-1.440118 c 0.07761,-0.07904 0.180018,-0.118773 0.282085,-0.118773 z" />
  </g>
</svg>
