<?xml version="1.0" encoding="UTF-8" standalone="no"?>
<svg
   inkscape:version="1.1.1 (3bf5ae0d25, 2021-09-20, custom)"
   id="svg8"
   version="1.1"
   viewBox="0 0 67.733332 33.866668"
   height="128"
   width="256"
   sodipodi:docname="invidious.svg"
   xmlns:inkscape="http://www.inkscape.org/namespaces/inkscape"
   xmlns:sodipodi="http://sodipodi.sourceforge.net/DTD/sodipodi-0.dtd"
   xmlns="http://www.w3.org/2000/svg"
   xmlns:svg="http://www.w3.org/2000/svg"
   xmlns:rdf="http://www.w3.org/1999/02/22-rdf-syntax-ns#"
   xmlns:cc="http://creativecommons.org/ns#"
   xmlns:dc="http://purl.org/dc/elements/1.1/">
  <defs
     id="defs2">
    <clipPath
       clipPathUnits="userSpaceOnUse"
       id="clipPath32">
      <path
         d="M 0,0 H 792 V 612 H 0 Z"
         id="path30" />
    </clipPath>
    <clipPath
       clipPathUnits="userSpaceOnUse"
       id="clipPath60">
      <path
         d="M 0,0 H 792 V 612 H 0 Z"
         id="path58" />
    </clipPath>
    <clipPath
       clipPathUnits="userSpaceOnUse"
       id="clipPath82">
      <path
         d="M 0,0 H 792 V 612 H 0 Z"
         id="path80" />
    </clipPath>
    <clipPath
       clipPathUnits="userSpaceOnUse"
       id="clipPath106">
      <path
         d="M 0,0 H 792 V 612 H 0 Z"
         id="path104" />
    </clipPath>
    <clipPath
       clipPathUnits="userSpaceOnUse"
       id="clipPath126">
      <path
         d="M 0,0 H 792 V 612 H 0 Z"
         id="path124" />
    </clipPath>
    <clipPath
       clipPathUnits="userSpaceOnUse"
       id="clipPath146">
      <path
         d="M 0,0 H 792 V 612 H 0 Z"
         id="path144" />
    </clipPath>
    <clipPath
       clipPathUnits="userSpaceOnUse"
       id="clipPath166">
      <path
         d="M 0,0 H 792 V 612 H 0 Z"
         id="path164" />
    </clipPath>
    <rect
       id="path-1"
       x="0"
       y="0.112107623"
       width="50"
       height="49.7757848" />
    <linearGradient
       x1="26.799478"
       y1="19.639755"
       x2="6.4907836"
       y2="20.515252"
       id="linearGradient-3"
       gradientTransform="scale(0.85441985,1.1703848)"
       gradientUnits="userSpaceOnUse">
      <stop
         stop-color="#FF5C34"
         offset="0%"
         id="stop94076" />
      <stop
         stop-color="#EB0256"
         offset="100%"
         id="stop94078" />
    </linearGradient>
    <linearGradient
       x1="18.604217"
       y1="60.088771"
       x2="29.551889"
       y2="34.263323"
       id="linearGradient-4"
       gradientTransform="scale(1.2181633,0.82090802)"
       gradientUnits="userSpaceOnUse">
      <stop
         stop-color="#A63FDB"
         offset="0%"
         id="stop94081" />
      <stop
         stop-color="#FF257E"
         offset="100%"
         id="stop94083" />
    </linearGradient>
    <linearGradient
       x1="31.906258"
       y1="22.861415"
       x2="56.143276"
       y2="28.198186"
       id="linearGradient-5"
       gradientTransform="scale(0.87861868,1.1381502)"
       gradientUnits="userSpaceOnUse">
      <stop
         stop-color="#00FFF0"
         offset="0%"
         id="stop94086" />
      <stop
         stop-color="#0087FF"
         offset="100%"
         id="stop94088" />
    </linearGradient>
    <linearGradient
       x1="40.014421"
       y1="3.0503507"
       x2="21.610673"
       y2="22.693472"
       id="linearGradient-6"
       gradientTransform="scale(1.0479971,0.95420109)"
       gradientUnits="userSpaceOnUse">
      <stop
         stop-color="#17C934"
         offset="0%"
         id="stop94091" />
      <stop
         stop-color="#03FF6E"
         offset="100%"
         id="stop94093" />
    </linearGradient>
    <linearGradient
       x1="50%"
       y1="111.913008%"
       x2="30.5601577%"
       y2="0%"
       id="linearGradient-7">
      <stop
         stop-color="#FFB000"
         offset="0%"
         id="stop94096" />
      <stop
         stop-color="#FF7725"
         offset="100%"
         id="stop94098" />
    </linearGradient>
    <path
       d="M25.8796198,24.6636771 C25.5187511,17.8623246 19.644178,12.6376937 12.7583935,12.9941375 C5.87260905,13.3505813 0.583119676,19.1531217 0.94398835,25.9544743 L0.954359402,26.1499392 C0.924772259,25.6582574 0.909768036,25.162698 0.909768036,24.6636771 C0.909768036,14.5077362 7.12441451,5.78550566 16.0023658,2.00478143 L16.5257487,1.7959139 C22.9188985,-0.755414121 30.1955057,2.29544903 32.7785059,8.61020748 C35.3615061,14.9249659 32.2727696,22.1123491 25.8796198,24.6636771 Z"
       id="path-8" />
    <path
       d="M16.3387661,1.87053346 L16.5257487,1.7959139 C22.9188985,-0.755414121 30.1955057,2.29544903 32.7785059,8.61020748 C35.3615061,14.9249659 32.2727696,22.1123491 25.8796198,24.6636771 C25.8261894,23.6566658 25.6518881,22.6842191 25.3713301,21.7593344 C28.8012958,19.9026454 31.1268503,16.3032843 31.1268503,12.167421 C31.1268503,6.13067623 26.1723508,1.23692769 20.060666,1.23692769 C18.7548626,1.23692769 17.5018839,1.46032366 16.3387661,1.87053346 Z"
       id="path-9" />
    <linearGradient
       x1="16.690788"
       y1="19.195547"
       x2="57.873303"
       y2="21.720842"
       id="linearGradient-10"
       gradientTransform="scale(0.85441984,1.1703848)"
       gradientUnits="userSpaceOnUse">
      <stop
         stop-color="#9EE85D"
         offset="0%"
         id="stop94103" />
      <stop
         stop-color="#0ED061"
         offset="100%"
         id="stop94105" />
    </linearGradient>
    <path
       d="M28.3794511,9.27014825 L28.5664337,9.1955287 C34.9595835,6.64420067 42.2361907,9.69506383 44.8191909,16.0098223 C47.4021911,22.3245807 44.3134546,29.5119639 37.9203048,32.0632919 C37.8668744,31.0562806 37.6925731,30.0838339 37.4120151,29.1589492 C40.8419808,27.3022602 43.1675353,23.7028991 43.1675353,19.5670358 C43.1675353,13.530291 38.2130358,8.63654249 32.101351,8.63654249 C30.7955476,8.63654249 29.5425689,8.85993845 28.3794511,9.27014825 Z"
       id="path-11" />
    <linearGradient
       x1="38.660449"
       y1="42.313535"
       x2="29.417905"
       y2="17.769199"
       id="linearGradient-12"
       gradientTransform="scale(0.85441985,1.1703848)"
       gradientUnits="userSpaceOnUse">
      <stop
         stop-color="#21EFE3"
         offset="0%"
         id="stop94109" />
      <stop
         stop-color="#2598FF"
         offset="100%"
         id="stop94111" />
    </linearGradient>
    <path
       d="M25.1352415,22.7323503 L25.3222242,22.6577307 C31.7153739,20.1064027 38.9919812,23.1572658 41.5749814,29.4720243 C44.1579816,35.7867827 41.069245,42.9741659 34.6760953,45.5254939 C34.6226649,44.5184826 34.4483636,43.5460359 34.1678055,42.6211512 C37.5977712,40.7644622 39.9233257,37.1651011 39.9233257,33.0292378 C39.9233257,26.992493 34.9688263,22.0987445 28.8571415,22.0987445 C27.5513381,22.0987445 26.2983594,22.3221405 25.1352415,22.7323503 Z"
       id="path-13" />
    <linearGradient
       x1="32.778083"
       y1="31.292349"
       x2="-5.7371641"
       y2="34.564076"
       id="linearGradient-14"
       gradientTransform="scale(0.85441985,1.1703848)"
       gradientUnits="userSpaceOnUse">
      <stop
         stop-color="#A63FDB"
         offset="0%"
         id="stop94115" />
      <stop
         stop-color="#FF257E"
         offset="100%"
         id="stop94117" />
    </linearGradient>
    <path
       d="M10.6540931,23.7648224 L10.8410757,23.6902028 C17.2342255,21.1388748 24.5108328,24.1897379 27.093833,30.5044964 C29.6768331,36.8192548 26.5880966,44.006638 20.1949468,46.557966 C20.1415164,45.5509547 19.9672152,44.578508 19.6866571,43.6536233 C23.1166228,41.7969343 25.4421773,38.1975732 25.4421773,34.0617099 C25.4421773,28.0249651 20.4876778,23.1312166 14.375993,23.1312166 C13.0701896,23.1312166 11.8172109,23.3546126 10.6540931,23.7648224 Z"
       id="path-15" />
    <path
       d="M5.54585436,10.6972047 L5.73283698,10.6225852 C12.1259868,8.07125717 19.402594,11.1221203 21.9855942,17.4368788 C24.5685944,23.7516372 21.4798579,30.9390204 15.0867081,33.4903484 C15.0332777,32.483337 14.8589764,31.5108904 14.5784184,30.5860057 C18.0083841,28.7293167 20.3339386,25.1299556 20.3339386,20.9940923 C20.3339386,14.9573475 15.3794391,10.063599 9.26775427,10.063599 C7.9619509,10.063599 6.70897218,10.2869949 5.54585436,10.6972047 Z"
       id="path-16" />
    <path
       d="M35.631732,42.3730981 L40.1765635,42.3730981 C44.4579764,42.3730981 47.9287473,39.0094481 47.9287473,34.8601757 C47.9287473,30.7109033 44.4579764,27.3472534 40.1765635,27.3472534 L33.6170234,27.3472534 C31.1469775,27.3472534 29.1446097,29.2878206 29.1446097,31.6816316 L29.1446097,48.5516086 L35.631732,42.3730981 Z"
       id="path-17" />
    <filter
       x="-0.19165107"
       y="-0.16977644"
       width="1.3833021"
       height="1.386713"
       filterUnits="objectBoundingBox"
       id="filter-18">
      <feOffset
         dx="0"
         dy="1"
         in="SourceAlpha"
         result="shadowOffsetOuter1"
         id="feOffset94123" />
      <feGaussianBlur
         stdDeviation="1.5"
         in="shadowOffsetOuter1"
         result="shadowBlurOuter1"
         id="feGaussianBlur94125" />
      <feColorMatrix
         values="0 0 0 0 0   0 0 0 0 0   0 0 0 0 0  0 0 0 0.298686594 0"
         type="matrix"
         in="shadowBlurOuter1"
         id="feColorMatrix94127" />
    </filter>
  </defs>
  <sodipodi:namedview
     units="px"
     showgrid="false"
     inkscape:document-rotation="0"
     inkscape:current-layer="layer1"
     inkscape:document-units="px"
     inkscape:cy="77.142857"
     inkscape:cx="135.35714"
     inkscape:zoom="1.4"
     inkscape:pageshadow="2"
     inkscape:pageopacity="0"
     borderopacity="1.0"
     bordercolor="#666666"
     pagecolor="#ffffff"
     id="base"
     inkscape:window-width="1280"
     inkscape:window-height="1371"
     inkscape:window-x="1280"
     inkscape:window-y="32"
     inkscape:window-maximized="0"
     inkscape:pagecheckerboard="0"
     inkscape:object-nodes="false"
     inkscape:snap-bbox="true"
     inkscape:bbox-nodes="true" />
  <metadata
     id="metadata5">
    <rdf:RDF>
      <cc:Work
         rdf:about="">
        <dc:format>image/svg+xml</dc:format>
        <dc:type
           rdf:resource="http://purl.org/dc/dcmitype/StillImage" />
      </cc:Work>
    </rdf:RDF>
  </metadata>
  <g
     id="layer1"
     inkscape:groupmode="layer"
     inkscape:label="Layer 1">
    <rect
       style="fill:#232323;stroke-width:3.47907;stroke-linecap:round;paint-order:markers stroke fill;fill-opacity:1"
       id="rect848"
       width="67.733337"
       height="33.866669"
       x="-1.7011719e-06"
       y="-8.5058593e-07" />
    <g
       transform="matrix(0.74329865,0,0,0.74329865,41.167346,-54.334139)"
       paint-order="fill markers stroke"
       id="g98042">
      <circle
         cx="-9.8219995"
         cy="95.879997"
         r="16.556999"
         fill="none"
         stroke="#dddddd"
         stroke-width="1.058"
         stroke-linecap="round"
         stroke-linejoin="round"
         id="circle98036" />
      <path
         style="line-height:normal;font-variant-ligatures:normal;font-variant-position:normal;font-variant-caps:normal;font-variant-numeric:normal;font-variant-alternates:normal;font-feature-settings:normal;text-indent:0;text-align:start;text-decoration-line:none;text-decoration-style:solid;text-decoration-color:#000000;text-transform:none;text-orientation:mixed;white-space:normal;shape-padding:0;isolation:auto;mix-blend-mode:normal;solid-color:#000000;solid-opacity:1"
         d="m -10.713,89.306 -0.743,2.64 6.893,13.75 h 2.034 z m -0.743,2.64 -3.976,13.423 0.508,0.15 4.49,-15.177 z m -4.933,13.228 v 0.53 h 2.813 v -0.53 z"
         color="#000000"
         font-weight="400"
         font-family="sans-serif"
         overflow="visible"
         fill="#dddddd"
         id="path98038" />
      <circle
         cx="-10.763"
         cy="87.185997"
         r="1.105"
         fill="#00b6f0"
         id="circle98040" />
    </g>
  </g>
  <style
     id="style827">
		tspan { white-space:pre }
		.shp0 { fill: #3498db } 
		.shp1 { fill: #ffffff } 
		.shp2 { fill: #8a9595 } 
	</style>
</svg>
