<?xml version="1.0" encoding="UTF-8" standalone="no"?>
<svg
   inkscape:version="1.1 (c4e8f9ed74, 2021-05-24)"
   id="svg8"
   version="1.1"
   viewBox="0 0 67.733332 33.866668"
   height="128"
   width="256"
   sodipodi:docname="khronos.svg"
   xmlns:inkscape="http://www.inkscape.org/namespaces/inkscape"
   xmlns:sodipodi="http://sodipodi.sourceforge.net/DTD/sodipodi-0.dtd"
   xmlns="http://www.w3.org/2000/svg"
   xmlns:svg="http://www.w3.org/2000/svg"
   xmlns:rdf="http://www.w3.org/1999/02/22-rdf-syntax-ns#"
   xmlns:cc="http://creativecommons.org/ns#"
   xmlns:dc="http://purl.org/dc/elements/1.1/">
  <defs
     id="defs2">
	
	
	
	

	

		
		
		
		
		
		
	
		
	
		
		
		
		
		
	</defs>
  <sodipodi:namedview
     units="px"
     showgrid="false"
     inkscape:document-rotation="0"
     inkscape:current-layer="layer1"
     inkscape:document-units="px"
     inkscape:cy="47.5"
     inkscape:cx="71.25"
     inkscape:zoom="2.8"
     inkscape:pageshadow="2"
     inkscape:pageopacity="0"
     borderopacity="1.0"
     bordercolor="#666666"
     pagecolor="#ffffff"
     id="base"
     inkscape:window-width="2560"
     inkscape:window-height="1371"
     inkscape:window-x="0"
     inkscape:window-y="32"
     inkscape:window-maximized="1"
     inkscape:pagecheckerboard="0" />
  <metadata
     id="metadata5">
    <rdf:RDF>
      <cc:Work
         rdf:about="">
        <dc:format>image/svg+xml</dc:format>
        <dc:type
           rdf:resource="http://purl.org/dc/dcmitype/StillImage" />
      </cc:Work>
    </rdf:RDF>
  </metadata>
  <g
     id="layer1"
     inkscape:groupmode="layer"
     inkscape:label="Layer 1">
    <rect
       style="fill:#0d1720;stroke-width:3.47907;stroke-linecap:round;paint-order:markers stroke fill;fill-opacity:1"
       id="rect848"
       width="67.733337"
       height="33.866669"
       x="-1.7011719e-06"
       y="-8.5058593e-07" />
    <g
       id="g958"
       transform="matrix(0.97564645,0,0,0.97564645,-44.03193,37.52817)"
       style="stroke-width:1.02496">
      <path
         id="Top_Swoosh"
         fill="#cc3333"
         d="m 79.24367,-15.75304 c -4.207825,-0.151361 -9.953474,-2.070613 -11.146195,-4.84354 -1.029252,-2.524694 -0.0061,-5.46109 4.849594,-7.549866 2.881905,-1.198776 7.241091,-1.537824 10.601296,-1.229048 4.764832,0.435918 9.30565,2.900069 9.311704,2.912177 v 3.457077 l -0.0061,0.230068 c 0,0 -1.47728,-1.338028 -3.323879,-2.415715 -1.73762,-1.017144 -3.329933,-1.731566 -6.490343,-2.022178 -0.738639,-0.0666 -1.99796,-0.236123 -4.0383,0.04844 -0.823402,0.115034 -1.985852,0.199796 -4.601363,1.350137 -0.847619,0.405646 -1.62864,0.83551 -2.234082,1.338028 -0.31483,0.26034 -0.744694,0.62966 -1.047415,0.94449 -0.744695,0.932381 -1.138232,1.634694 -0.950545,2.906123 0.217959,0.956599 0.641769,1.555987 1.870817,2.470205 0.532789,0.399592 0.593334,0.393538 0.829456,0.514626 2.197756,1.138232 3.953539,1.555987 6.46007,1.870817"
         style="stroke-width:1.18511" />
      <path
         id="Bottom_Swoosh"
         fill="#cc3333"
         d="m 79.473738,-26.529915 c 4.219933,-0.01816 10.201704,1.671021 11.757691,4.395512 1.362245,2.476259 0.732585,5.448981 -3.83245,7.71939 -2.712382,1.31381 -7.017078,1.822382 -10.407555,1.646804 -4.813267,-0.248232 -9.668915,-2.53075 -9.67497,-2.536804 l -0.460136,-3.444967 -0.03027,-0.230068 c 0,0 1.652858,1.277483 3.638709,2.282517 1.870817,0.944491 3.553947,1.598368 6.744628,1.761838 0.744694,0.04238 2.022178,0.15136 4.020138,-0.205851 0.805238,-0.145306 1.955579,-0.278503 4.40762,-1.525714 0.79313,-0.435919 1.513606,-0.896055 2.046396,-1.42279 0.278503,-0.272449 0.659932,-0.659932 0.920272,-0.980817 0.617551,-0.962653 0.920272,-1.677075 0.563061,-2.936395 -0.345102,-0.944491 -0.847619,-1.525715 -2.191701,-2.391498 -0.581225,-0.375374 -0.641769,-0.36932 -0.896055,-0.484354 -2.343062,-1.047415 -4.14728,-1.392517 -6.696193,-1.610477"
         style="stroke-width:1.18511" />
    </g>
  </g>
</svg>
