<?xml version="1.0" encoding="UTF-8" standalone="no"?>
<svg
   inkscape:version="1.1.1 (3bf5ae0d25, 2021-09-20, custom)"
   id="svg8"
   version="1.1"
   viewBox="0 0 67.733332 33.866668"
   height="128"
   width="256"
   sodipodi:docname="privacytoolsio.svg"
   xmlns:inkscape="http://www.inkscape.org/namespaces/inkscape"
   xmlns:sodipodi="http://sodipodi.sourceforge.net/DTD/sodipodi-0.dtd"
   xmlns="http://www.w3.org/2000/svg"
   xmlns:svg="http://www.w3.org/2000/svg"
   xmlns:rdf="http://www.w3.org/1999/02/22-rdf-syntax-ns#"
   xmlns:cc="http://creativecommons.org/ns#"
   xmlns:dc="http://purl.org/dc/elements/1.1/">
  <defs
     id="defs2" />
  <sodipodi:namedview
     units="px"
     showgrid="false"
     inkscape:document-rotation="0"
     inkscape:current-layer="layer1"
     inkscape:document-units="px"
     inkscape:cy="61.619305"
     inkscape:cx="145.96704"
     inkscape:zoom="0.9899495"
     inkscape:pageshadow="2"
     inkscape:pageopacity="0"
     borderopacity="1.0"
     bordercolor="#666666"
     pagecolor="#ffffff"
     id="base"
     inkscape:window-width="1280"
     inkscape:window-height="1371"
     inkscape:window-x="1280"
     inkscape:window-y="32"
     inkscape:window-maximized="0"
     inkscape:pagecheckerboard="0" />
  <metadata
     id="metadata5">
    <rdf:RDF>
      <cc:Work
         rdf:about="">
        <dc:format>image/svg+xml</dc:format>
        <dc:type
           rdf:resource="http://purl.org/dc/dcmitype/StillImage" />
      </cc:Work>
    </rdf:RDF>
  </metadata>
  <g
     id="layer1"
     inkscape:groupmode="layer"
     inkscape:label="Layer 1">
    <rect
       style="fill:#24292e;stroke-width:3.47907;stroke-linecap:round;paint-order:markers stroke fill;fill-opacity:1"
       id="rect848"
       width="67.733337"
       height="33.866669"
       x="-1.7011719e-06"
       y="-8.5058593e-07" />
    <g
       id="Shield"
       transform="matrix(0.25263577,0,0,0.25263577,-38.086527,4.2333333)">
      <g
         id="g834">
        <path
           id="Layer"
           class="shp0"
           d="m 284.81,0 c -4.95,0.24 -30.48,8.51 -42.25,14.89 -1.69,0.92 -3.55,4.07 -3.56,5.45 0,12.66 3.05,31.33 11.66,47.92 L 267.5,51.42 c -3.25,-8.23 -1.31,-17.61 4.94,-23.86 3.81,-3.62 10.97,-6.3 17.2,-6.41 2.83,-0.05 5.47,0.43 7.51,1.59 1.19,0.69 0.63,1.58 0.27,1.94 l -12.9,12.37 c -1.63,1.75 -0.22,6.24 0.84,9.1 2.85,1.05 7.34,2.46 9.09,0.83 l 12.38,-12.9 c 0.35,-0.35 1.24,-0.91 1.93,0.28 3.71,6.52 0.45,19.17 -4.81,24.7 -6.26,6.26 -15.64,8.2 -23.86,4.94 l -19.33,19.33 c 6.28,7.28 14.19,13.36 24.05,17.21 35.65,-13.91 45.81,-57.08 45.81,-80.2 -0.01,-1.38 -1.86,-4.53 -3.56,-5.45 C 315.29,8.51 289.76,0.24 284.81,0 Z" />
        <g
           id="g832">
          <path
             id="path830"
             class="shp1"
             d="m 250.69,68.23 c 0.24,0.45 0.48,0.9 0.72,1.35 1.02,1.88 2.11,3.73 3.28,5.54 1.17,1.81 2.41,3.57 3.74,5.28 0.76,0.98 1.55,1.95 2.37,2.9 l 19.32,-19.33 c 8.23,3.26 17.61,1.32 23.86,-4.94 5.27,-5.53 8.53,-18.18 4.82,-24.7 -0.69,-1.19 -1.58,-0.63 -1.94,-0.28 l -12.37,12.9 c -1.75,1.63 -6.24,0.22 -9.1,-0.83 -1.05,-2.86 -2.46,-7.35 -0.83,-9.1 l 12.9,-12.37 c 0.35,-0.36 0.91,-1.25 -0.28,-1.94 -2.04,-1.16 -4.67,-1.64 -7.5,-1.59 -6.23,0.11 -13.4,2.79 -17.2,6.41 -6.26,6.26 -8.2,15.63 -4.94,23.86 z" />
        </g>
      </g>
    </g>
  </g>
  <style
     id="style827">
		tspan { white-space:pre }
		.shp0 { fill: #3498db } 
		.shp1 { fill: #ffffff } 
		.shp2 { fill: #8a9595 } 
	</style>
</svg>
