<?xml version="1.0" encoding="UTF-8" standalone="no"?>
<svg
   xmlns:dc="http://purl.org/dc/elements/1.1/"
   xmlns:cc="http://creativecommons.org/ns#"
   xmlns:rdf="http://www.w3.org/1999/02/22-rdf-syntax-ns#"
   xmlns:svg="http://www.w3.org/2000/svg"
   xmlns="http://www.w3.org/2000/svg"
   xmlns:sodipodi="http://sodipodi.sourceforge.net/DTD/sodipodi-0.dtd"
   xmlns:inkscape="http://www.inkscape.org/namespaces/inkscape"
   inkscape:version="1.0.1 (3bc2e813f5, 2020-09-07)"
   id="svg8"
   version="1.1"
   viewBox="0 0 67.733332 33.866668"
   height="128"
   width="256"
   sodipodi:docname="rust.svg">
  <defs
     id="defs2" />
  <sodipodi:namedview
     units="px"
     showgrid="false"
     inkscape:document-rotation="0"
     inkscape:current-layer="layer1"
     inkscape:document-units="px"
     inkscape:cy="74.312"
     inkscape:cx="125.60654"
     inkscape:zoom="3.959798"
     inkscape:pageshadow="2"
     inkscape:pageopacity="0"
     borderopacity="1.0"
     bordercolor="#666666"
     pagecolor="#ffffff"
     id="base"
     inkscape:window-width="2560"
     inkscape:window-height="1376"
     inkscape:window-x="0"
     inkscape:window-y="0"
     inkscape:window-maximized="1" />
  <metadata
     id="metadata5">
    <rdf:RDF>
      <cc:Work
         rdf:about="">
        <dc:format>image/svg+xml</dc:format>
        <dc:type
           rdf:resource="http://purl.org/dc/dcmitype/StillImage" />
        <dc:title></dc:title>
      </cc:Work>
    </rdf:RDF>
  </metadata>
  <g
     id="layer1"
     inkscape:groupmode="layer"
     inkscape:label="Layer 1">
    <rect
       style="fill:#f6f5f4;stroke-width:3.47907;stroke-linecap:round;paint-order:markers stroke fill"
       id="rect848"
       width="67.733337"
       height="33.866669"
       x="-1.7011719e-06"
       y="-8.5058593e-07" />
    <path
       id="path3"
       d="m 46.392904,16.621746 -1.066322,-0.66008 c -0.009,-0.103866 -0.01917,-0.207489 -0.03033,-0.310626 L 46.2126,14.796332 c 0.09319,-0.08688 0.134928,-0.215496 0.109689,-0.33999 -0.02451,-0.124978 -0.112117,-0.227873 -0.231271,-0.272283 l -1.171401,-0.438031 c -0.02936,-0.101439 -0.06018,-0.20215 -0.09173,-0.302376 l 0.730699,-1.014874 c 0.0745,-0.103137 0.08979,-0.237337 0.04125,-0.355036 -0.04854,-0.117212 -0.154586,-0.201178 -0.280049,-0.221806 L 44.084565,11.651 c -0.04805,-0.09367 -0.09804,-0.185891 -0.148518,-0.277379 l 0.519086,-1.139368 c 0.05315,-0.115999 0.04222,-0.2509285 -0.02863,-0.3562495 -0.07062,-0.105807 -0.190259,-0.16769 -0.317907,-0.162836 l -1.253669,0.04368 c -0.0648,-0.08105 -0.130802,-0.16138 -0.198024,-0.24025 l 0.288057,-1.221149 c 0.02912,-0.124008 -0.0075,-0.253839 -0.0978,-0.343873 -0.08955,-0.08979 -0.219622,-0.126919 -0.34363,-0.0978 l -1.220906,0.287814 c -0.07911,-0.06698 -0.15944,-0.13323 -0.240736,-0.198024 l 0.04393,-1.253667 c 0.0049,-0.126922 -0.05703,-0.247532 -0.16284,-0.317909 -0.106049,-0.07086 -0.240249,-0.08154 -0.356007,-0.02888 l -1.139124,0.519328 c -0.09197,-0.05047 -0.184192,-0.100468 -0.27738,-0.148761 l -0.201421,-1.235467 c -0.02038,-0.125221 -0.104351,-0.231513 -0.221806,-0.280049 -0.117213,-0.04878 -0.251656,-0.033 -0.354794,0.04125 l -1.015602,0.730699 c -0.09998,-0.03179 -0.20045,-0.06236 -0.30189,-0.09149 l -0.438031,-1.171643 c -0.04441,-0.119397 -0.147305,-0.207004 -0.272283,-0.231756 -0.124736,-0.02451 -0.253112,0.01699 -0.339748,0.109689 l -0.854707,0.917076 c -0.103138,-0.0114 -0.207003,-0.02184 -0.310626,-0.03034 l -0.660081,-1.066564 c -0.06673,-0.107991 -0.184919,-0.173757 -0.312082,-0.173757 -0.127162,0 -0.245346,0.06577 -0.31184,0.173757 l -0.66008,1.066564 c -0.103866,0.0085 -0.207731,0.01893 -0.310869,0.03034 l -0.85495,-0.917076 c -0.08664,-0.0927 -0.215254,-0.1342 -0.339747,-0.109689 -0.124979,0.02499 -0.227874,0.112359 -0.272283,0.231756 l -0.438032,1.171643 c -0.101439,0.02912 -0.201907,0.05994 -0.302132,0.09149 l -1.01536,-0.730699 c -0.103137,-0.0745 -0.23758,-0.09028 -0.355036,-0.04125 -0.117212,0.04854 -0.201421,0.154828 -0.221806,0.280049 l -0.201421,1.235467 c -0.09319,0.04829 -0.185406,0.09804 -0.27738,0.148761 l -1.139124,-0.519328 c -0.115757,-0.05291 -0.250686,-0.04198 -0.356007,0.02888 -0.105807,0.07038 -0.16769,0.190987 -0.162836,0.317907 l 0.04368,1.253667 c -0.08105,0.0648 -0.16138,0.131046 -0.240736,0.198024 l -1.220906,-0.287814 c -0.124008,-0.02888 -0.254082,0.008 -0.343873,0.0978 -0.09027,0.09003 -0.12692,0.219865 -0.0978,0.343873 l 0.287572,1.221149 c -0.06674,0.07911 -0.132745,0.159196 -0.197539,0.24025 l -1.253668,-0.04368 c -0.126435,-0.0036 -0.247288,0.05703 -0.317906,0.162836 -0.07086,0.105321 -0.08154,0.2402505 -0.02888,0.3562495 l 0.519327,1.139369 c -0.05047,0.09149 -0.100468,0.183706 -0.148761,0.277379 l -1.235224,0.200936 c -0.125464,0.02038 -0.231271,0.104351 -0.280049,0.221806 -0.04854,0.117699 -0.03276,0.251899 0.04125,0.355036 l 0.7307,1.014874 c -0.03179,0.100226 -0.06261,0.200937 -0.09173,0.302376 l -1.171643,0.438031 c -0.118912,0.04441 -0.206518,0.147305 -0.231271,0.272283 -0.02475,0.124736 0.01674,0.253112 0.10969,0.33999 l 0.91659,0.854708 c -0.0114,0.103137 -0.0216,0.207003 -0.03034,0.310626 l -1.06632,0.66008 c -0.107991,0.06674 -0.173757,0.184678 -0.173757,0.312083 0,0.127405 0.06577,0.245346 0.173757,0.311839 l 1.06632,0.660081 c 0.0087,0.103865 0.01893,0.207489 0.03034,0.310626 l -0.91659,0.85495 c -0.09295,0.08664 -0.134443,0.215254 -0.10969,0.339747 0.02475,0.124979 0.112359,0.227631 0.231271,0.272283 l 1.171643,0.438032 c 0.02912,0.101439 0.05994,0.202149 0.09173,0.302374 l -0.7307,1.015117 c -0.07426,0.103381 -0.09003,0.237581 -0.04125,0.354793 0.04878,0.117699 0.154827,0.201665 0.280292,0.221807 l 1.234981,0.200936 c 0.0483,0.09367 0.0978,0.185891 0.148761,0.277865 l -0.519328,1.138882 c -0.05291,0.115757 -0.04198,0.250442 0.02888,0.356249 0.07086,0.10605 0.191473,0.167932 0.317907,0.162836 l 1.253182,-0.04393 c 0.06528,0.08154 0.131046,0.16138 0.198025,0.240735 l -0.287573,1.221392 c -0.02912,0.123765 0.0075,0.253112 0.0978,0.343145 0.08955,0.09052 0.219865,0.126677 0.343873,0.09756 l 1.220906,-0.287572 c 0.07935,0.06746 0.159682,0.132987 0.240736,0.197539 l -0.04368,1.253911 c -0.0049,0.12692 0.05703,0.247287 0.162836,0.318149 0.105321,0.07062 0.24025,0.0813 0.356007,0.02839 l 1.139124,-0.519085 c 0.09173,0.05096 0.183949,0.100468 0.277379,0.14876 l 0.201422,1.234739 c 0.02038,0.125707 0.10435,0.231999 0.221806,0.280292 0.117213,0.04878 0.251899,0.033 0.355036,-0.04101 l 1.014874,-0.731185 c 0.100225,0.03179 0.200937,0.06285 0.302375,0.09197 l 0.438031,1.171158 c 0.04441,0.118912 0.147306,0.207003 0.272284,0.231271 0.124736,0.02524 0.253112,-0.0165 0.339747,-0.10969 l 0.854951,-0.91659 c 0.103137,0.01189 0.207003,0.02184 0.310868,0.03106 l 0.660081,1.066322 c 0.0665,0.107505 0.184677,0.173756 0.311839,0.173756 0.127163,0 0.245346,-0.06601 0.312083,-0.173756 l 0.66008,-1.066322 c 0.103866,-0.0092 0.207489,-0.01917 0.310626,-0.03106 l 0.854707,0.91659 c 0.08664,0.09319 0.215255,0.134928 0.339747,0.10969 0.124979,-0.02451 0.227874,-0.112359 0.272284,-0.231271 l 0.438032,-1.171158 c 0.101438,-0.02912 0.202149,-0.06018 0.302374,-0.09197 l 1.015117,0.731185 c 0.103138,0.07402 0.237581,0.08979 0.354793,0.04101 0.117456,-0.04829 0.201422,-0.154827 0.221807,-0.280292 l 0.201422,-1.234739 c 0.09319,-0.04829 0.185405,-0.09853 0.277379,-0.14876 l 1.139124,0.519085 c 0.115757,0.05291 0.250443,0.04223 0.356007,-0.02839 0.105807,-0.07086 0.167447,-0.190987 0.162836,-0.318149 l -0.04368,-1.253911 c 0.08105,-0.0648 0.16138,-0.130074 0.240493,-0.197539 l 1.220906,0.287572 c 0.124008,0.02912 0.254083,-0.007 0.34363,-0.09756 0.09028,-0.09003 0.12692,-0.21938 0.0978,-0.343145 l -0.287571,-1.221392 c 0.06698,-0.07935 0.132986,-0.159196 0.197538,-0.240735 l 1.253668,0.04393 c 0.126435,0.0051 0.247287,-0.05679 0.317906,-0.162836 0.07086,-0.105807 0.08178,-0.240492 0.02863,-0.356249 l -0.519081,-1.138882 c 0.05072,-0.09197 0.100469,-0.184191 0.148519,-0.277865 l 1.235224,-0.200936 c 0.125706,-0.02014 0.231514,-0.104108 0.280048,-0.221807 0.04854,-0.117212 0.03325,-0.251412 -0.04125,-0.354793 l -0.7307,-1.015117 c 0.03155,-0.100225 0.06236,-0.200935 0.09173,-0.302374 l 1.171401,-0.438032 c 0.119154,-0.04465 0.207003,-0.147304 0.23127,-0.272283 0.02524,-0.124736 -0.0165,-0.253111 -0.10969,-0.339747 l -0.916346,-0.85495 c 0.01116,-0.103137 0.02135,-0.207003 0.03034,-0.310626 l 1.066321,-0.660081 c 0.107991,-0.0665 0.173756,-0.184677 0.173756,-0.311839 0,-0.127163 -0.06552,-0.245346 -0.173513,-0.312083 z m -7.136879,8.845808 c -0.407211,-0.08785 -0.666147,-0.489236 -0.578784,-0.897661 0.08712,-0.407939 0.488265,-0.667604 0.895234,-0.579755 0.407212,0.08712 0.666633,0.489236 0.57927,0.896933 -0.08736,0.407697 -0.488751,0.667604 -0.89572,0.580483 z m -0.362316,-2.450549 c -0.371538,-0.0796 -0.73701,0.156769 -0.816607,0.529035 l -0.378576,1.766686 c -1.168245,0.530249 -2.465595,0.824858 -3.831865,0.824858 -1.397575,0 -2.723075,-0.309169 -3.91219,-0.861987 L 29.576137,23.50891 c -0.0796,-0.37178 -0.445069,-0.608633 -0.816364,-0.528792 l -1.559683,0.334894 c -0.289514,-0.298007 -0.558884,-0.615429 -0.806415,-0.950565 h 7.588986 c 0.08591,0 0.143179,-0.01553 0.143179,-0.09367 v -2.684488 c 0,-0.07814 -0.05727,-0.09367 -0.143179,-0.09367 H 31.76314 v -1.701648 h 2.400558 c 0.219137,0 1.171642,0.06261 1.476202,1.280119 0.09537,0.37445 0.304802,1.592444 0.447981,1.982426 0.142694,0.437303 0.723662,1.310939 1.34273,1.310939 h 3.781631 c 0.04295,0 0.08882,-0.0049 0.137112,-0.01359 -0.262333,0.356492 -0.550148,0.693812 -0.860046,1.009049 z m -10.496253,2.413662 c -0.407211,0.08785 -0.808113,-0.171815 -0.895719,-0.579754 -0.08712,-0.408668 0.171815,-0.809813 0.579027,-0.897662 0.407211,-0.08712 0.808356,0.172544 0.895719,0.580483 0.08712,0.407697 -0.172058,0.80957 -0.579027,0.896933 z M 25.518583,13.756705 c 0.168903,0.381246 -0.0029,0.828013 -0.383672,0.996673 -0.380759,0.169146 -0.826313,-0.0029 -0.995217,-0.384399 -0.168903,-0.381488 0.0029,-0.827528 0.383672,-0.996673 0.381003,-0.168903 0.826314,0.0029 0.995217,0.384399 z m -0.884799,2.097455 1.62472,-0.721963 c 0.347028,-0.1541 0.503797,-0.560826 0.349698,-0.908582 L 26.27355,13.46695 h 1.316036 v 5.931989 h -2.655125 c -0.230301,-0.80957 -0.353823,-1.664035 -0.353823,-2.547135 0,-0.337078 0.0182,-0.670273 0.05315,-0.997644 z m 7.129841,-0.576114 V 13.52956 h 3.133927 c 0.161865,0 1.143007,0.187103 1.143007,0.920715 0,0.609119 -0.752541,0.827528 -1.371366,0.827528 h -2.905568 z m 11.389302,1.573758 c 0,0.231999 -0.0085,0.461571 -0.02548,0.689445 h -0.952749 c -0.09537,0 -0.133715,0.06261 -0.133715,0.156041 v 0.437545 c 0,1.02992 -0.580726,1.253911 -1.089619,1.31094 -0.484625,0.0546 -1.021912,-0.202877 -1.088162,-0.499429 -0.285873,-1.607975 -0.762247,-1.951363 -1.514545,-2.544707 0.933577,-0.592859 1.905012,-1.467466 1.905012,-2.638139 0,-1.264102 -0.866598,-2.060325 -1.457274,-2.450791 -0.828741,-0.546265 -1.746301,-0.655713 -1.993831,-0.655713 H 26.949162 C 28.28534,9.1657475 30.096193,8.1093755 32.144385,7.7249765 l 1.161451,1.218479 c 0.262575,0.274952 0.697452,0.285145 0.972162,0.02233 l 1.299534,-1.24299 c 2.723075,0.506951 5.028503,2.202048 6.357159,4.5276185 l -0.889653,2.009364 c -0.153615,0.347756 0.0032,0.754481 0.34994,0.908581 l 1.712811,0.760792 c 0.02961,0.304074 0.04514,0.611302 0.04514,0.922656 z M 33.306321,6.6885045 c 0.300919,-0.2883 0.778264,-0.276895 1.066321,0.02451 0.287572,0.302132 0.276651,0.779963 -0.025,1.06802 -0.300919,0.2883 -0.778264,0.277137 -1.066321,-0.02475 -0.28733,-0.301647 -0.276409,-0.779477 0.02499,-1.067777 z m 8.828578,7.1048455 c 0.16866,-0.381245 0.614214,-0.553303 0.994974,-0.384157 0.38076,0.168903 0.552575,0.615427 0.383672,0.996673 -0.168661,0.381487 -0.614214,0.553545 -0.995217,0.384399 -0.380275,-0.168903 -0.55209,-0.615185 -0.383429,-0.996915 z"
       style="stroke-width:0.242677" />
  </g>
</svg>
