<?xml version="1.0" encoding="UTF-8" standalone="no"?>
<svg
   xmlns:dc="http://purl.org/dc/elements/1.1/"
   xmlns:cc="http://creativecommons.org/ns#"
   xmlns:rdf="http://www.w3.org/1999/02/22-rdf-syntax-ns#"
   xmlns:svg="http://www.w3.org/2000/svg"
   xmlns="http://www.w3.org/2000/svg"
   xmlns:xlink="http://www.w3.org/1999/xlink"
   xmlns:sodipodi="http://sodipodi.sourceforge.net/DTD/sodipodi-0.dtd"
   xmlns:inkscape="http://www.inkscape.org/namespaces/inkscape"
   inkscape:version="1.0.1 (3bc2e813f5, 2020-09-07, custom)"
   id="svg8"
   version="1.1"
   viewBox="0 0 67.733332 33.866668"
   height="128"
   width="256"
   sodipodi:docname="steam.svg">
  <defs
     id="defs2">
	
	
	
<linearGradient
   id="a"
   x2="116.68872"
   x1="116.68872"
   y2="232.87497"
   gradientTransform="matrix(0.26444136,0,0,0.26472539,-84.950218,-25.456068)"
   y1="0"
   gradientUnits="userSpaceOnUse">
  <stop
     stop-color="#111D2E"
     offset="0"
     id="stop892" />
  <stop
     stop-color="#051839"
     offset=".21248"
     id="stop894" />
  <stop
     stop-color="#0A1B48"
     offset=".40695"
     id="stop896" />
  <stop
     stop-color="#132E62"
     offset=".58110"
     id="stop898" />
  <stop
     stop-color="#144B7E"
     offset=".73760"
     id="stop900" />
  <stop
     stop-color="#136497"
     offset=".87279"
     id="stop902" />
  <stop
     stop-color="#1387B8"
     offset="1"
     id="stop904" />
</linearGradient>
<linearGradient
   inkscape:collect="always"
   xlink:href="#a"
   id="linearGradient981"
   x1="33.400337"
   y1="0.13424388"
   x2="33.400337"
   y2="34.022404"
   gradientUnits="userSpaceOnUse" />
</defs>
  <sodipodi:namedview
     units="px"
     showgrid="false"
     inkscape:document-rotation="0"
     inkscape:current-layer="layer1"
     inkscape:document-units="px"
     inkscape:cy="68.758422"
     inkscape:cx="159.27172"
     inkscape:zoom="3.959798"
     inkscape:pageshadow="2"
     inkscape:pageopacity="0"
     borderopacity="1.0"
     bordercolor="#666666"
     pagecolor="#ffffff"
     id="base"
     inkscape:window-width="2560"
     inkscape:window-height="1376"
     inkscape:window-x="0"
     inkscape:window-y="0"
     inkscape:window-maximized="1" />
  <metadata
     id="metadata5">
    <rdf:RDF>
      <cc:Work
         rdf:about="">
        <dc:format>image/svg+xml</dc:format>
        <dc:type
           rdf:resource="http://purl.org/dc/dcmitype/StillImage" />
        <dc:title></dc:title>
      </cc:Work>
    </rdf:RDF>
  </metadata>
  <g
     id="layer1"
     inkscape:groupmode="layer"
     inkscape:label="Layer 1">
    <rect
       style="fill:url(#linearGradient981);stroke-width:3.47907;stroke-linecap:round;paint-order:markers stroke fill;fill-opacity:1"
       id="rect848"
       width="67.733337"
       height="33.866669"
       x="-1.7011719e-06"
       y="-8.5058593e-07" />
    <path
       id="path909"
       style="fill:#ffffff;stroke-width:0.264583"
       d="m 33.852973,4.2333332 c -6.730564,0 -12.237651,5.2356625 -12.672612,11.8561248 0.002,0.0034 0.0037,0.0064 0.0057,0.0098 1e-6,-7e-6 0,-0.0021 0,-0.0021 l 6.823875,2.809131 c 0.185647,-0.122094 0.383637,-0.227556 0.594793,-0.313676 0.479002,-0.197311 0.984346,-0.285923 1.487766,-0.263033 l 3.107304,-4.514453 c -0.0011,-0.02006 -10e-4,-0.04116 -10e-4,-0.06253 0,-2.664275 2.164083,-4.8317464 4.823997,-4.8317464 2.661002,0 4.823995,2.1674714 4.823995,4.8317464 0,2.664057 -2.162993,4.833297 -4.823995,4.833297 -0.03598,0 -0.07307,-9.67e-4 -0.109037,-0.0021 l -4.446757,3.177584 c 0.01308,0.490558 -0.07726,0.982319 -0.271301,1.451074 -0.745649,1.793262 -2.812389,2.646995 -4.604888,1.898076 -1.095579,-0.456764 -1.838267,-1.406239 -2.080493,-2.488737 l -4.80751,-1.983774 c 1.585519,5.206914 6.424905,8.995317 12.150163,8.995317 7.01389,0 12.7,-5.686111 12.7,-12.7 0,-7.0139979 -5.68611,-12.7000008 -12.7,-12.7000008 z m 4.169772,6.3003908 c -1.771459,0 -3.213759,1.44474 -3.213759,3.218925 0,1.775601 1.4423,3.219959 3.213759,3.219959 1.772547,0 3.214791,-1.444358 3.214791,-3.219959 0,-1.774185 -1.442244,-3.218925 -3.214791,-3.218925 z m 0.0057,0.794784 c 1.333227,0 2.414323,1.083239 2.414323,2.418974 0,1.335844 -1.081096,2.418457 -2.414323,2.418457 -1.332138,0 -2.413808,-1.082613 -2.413808,-2.418457 0,-1.335735 1.08167,-2.418974 2.413808,-2.418974 z m -8.05429,7.805725 c -0.339479,-0.0027 -0.673825,0.05894 -0.987021,0.177767 l 1.623158,0.672827 c 1.020146,0.42515 1.50304,1.598028 1.077455,2.619479 -0.424278,1.020358 -1.595691,1.504154 -2.61638,1.079004 l -1.569929,-0.650607 c 0.278093,0.581038 0.759875,1.068295 1.398365,1.334286 1.384028,0.576678 2.976158,-0.08051 3.55327,-1.466061 0.279114,-0.669339 0.280453,-1.411041 0.0047,-2.08256 -0.275801,-0.671519 -0.796335,-1.196807 -1.467093,-1.475879 -0.332653,-0.138444 -0.676995,-0.205531 -1.016476,-0.208256 z" />
  </g>
</svg>
