<?xml version="1.0" encoding="UTF-8" standalone="no"?>
<svg
   inkscape:version="1.1 (c4e8f9ed74, 2021-05-24)"
   id="svg8"
   version="1.1"
   viewBox="0 0 67.733332 33.866668"
   height="128"
   width="256"
   sodipodi:docname="telegram.svg"
   xmlns:inkscape="http://www.inkscape.org/namespaces/inkscape"
   xmlns:sodipodi="http://sodipodi.sourceforge.net/DTD/sodipodi-0.dtd"
   xmlns:xlink="http://www.w3.org/1999/xlink"
   xmlns="http://www.w3.org/2000/svg"
   xmlns:svg="http://www.w3.org/2000/svg"
   xmlns:rdf="http://www.w3.org/1999/02/22-rdf-syntax-ns#"
   xmlns:cc="http://creativecommons.org/ns#"
   xmlns:dc="http://purl.org/dc/elements/1.1/">
  <defs
     id="defs2">
    <linearGradient
       id="b"
       x1="160.008"
       y1="40.008001"
       x2="100.008"
       y2="180"
       gradientUnits="userSpaceOnUse">
      <stop
         stop-color="#37aee2"
         offset="0"
         id="stop825" />
      <stop
         stop-color="#1e96c8"
         offset="1"
         id="stop827" />
    </linearGradient>
    <linearGradient
       id="w"
       x1="123.64119"
       y1="131.02764"
       x2="146.52715"
       y2="174.70814"
       gradientTransform="matrix(0.11556027,0,0,0.09692512,21.166667,4.2333339)"
       gradientUnits="userSpaceOnUse">
      <stop
         stop-color="#eff7fc"
         offset="0"
         id="stop830" />
      <stop
         stop-color="#fff"
         offset="1"
         id="stop832" />
    </linearGradient>
    <filter
       style="color-interpolation-filters:sRGB"
       id="filter1769"
       x="-0.057342707"
       width="1.1146854"
       y="-0.057086646"
       height="1.1141733">
      <feGaussianBlur
         stdDeviation="3.5306992"
         id="feGaussianBlur1771" />
    </filter>
    <linearGradient
       gradientTransform="matrix(0,-143.29621,143.29621,0,-40.015187,153.53099)"
       y2="0"
       x2="1"
       y1="0"
       x1="-1.11277e-07"
       gradientUnits="userSpaceOnUse"
       id="linear0">
      <stop
         id="stop64"
         style="stop-color:rgb(12.548828%,69.018555%,21.960449%);stop-opacity:1;"
         offset="0" />
      <stop
         id="stop66"
         style="stop-color:rgb(12.646484%,69.076538%,22.036743%);stop-opacity:1;"
         offset="0.0078125" />
      <stop
         id="stop68"
         style="stop-color:rgb(12.841797%,69.192505%,22.189331%);stop-opacity:1;"
         offset="0.015625" />
      <stop
         id="stop70"
         style="stop-color:rgb(13.038635%,69.309998%,22.343445%);stop-opacity:1;"
         offset="0.0234375" />
      <stop
         id="stop72"
         style="stop-color:rgb(13.233948%,69.425964%,22.496033%);stop-opacity:1;"
         offset="0.03125" />
      <stop
         id="stop74"
         style="stop-color:rgb(13.430786%,69.541931%,22.648621%);stop-opacity:1;"
         offset="0.0390625" />
      <stop
         id="stop76"
         style="stop-color:rgb(13.626099%,69.659424%,22.802734%);stop-opacity:1;"
         offset="0.046875" />
      <stop
         id="stop78"
         style="stop-color:rgb(13.822937%,69.775391%,22.955322%);stop-opacity:1;"
         offset="0.0546875" />
      <stop
         id="stop80"
         style="stop-color:rgb(14.01825%,69.891357%,23.10791%);stop-opacity:1;"
         offset="0.0625" />
      <stop
         id="stop82"
         style="stop-color:rgb(14.215088%,70.00885%,23.262024%);stop-opacity:1;"
         offset="0.0703125" />
      <stop
         id="stop84"
         style="stop-color:rgb(14.4104%,70.124817%,23.414612%);stop-opacity:1;"
         offset="0.078125" />
      <stop
         id="stop86"
         style="stop-color:rgb(14.607239%,70.240784%,23.568726%);stop-opacity:1;"
         offset="0.0859375" />
      <stop
         id="stop88"
         style="stop-color:rgb(14.802551%,70.35675%,23.721313%);stop-opacity:1;"
         offset="0.09375" />
      <stop
         id="stop90"
         style="stop-color:rgb(14.99939%,70.474243%,23.873901%);stop-opacity:1;"
         offset="0.101562" />
      <stop
         id="stop92"
         style="stop-color:rgb(15.194702%,70.59021%,24.028015%);stop-opacity:1;"
         offset="0.109375" />
      <stop
         id="stop94"
         style="stop-color:rgb(15.391541%,70.706177%,24.180603%);stop-opacity:1;"
         offset="0.117188" />
      <stop
         id="stop96"
         style="stop-color:rgb(15.586853%,70.823669%,24.334717%);stop-opacity:1;"
         offset="0.125" />
      <stop
         id="stop98"
         style="stop-color:rgb(15.783691%,70.939636%,24.487305%);stop-opacity:1;"
         offset="0.132813" />
      <stop
         id="stop100"
         style="stop-color:rgb(15.979004%,71.055603%,24.639893%);stop-opacity:1;"
         offset="0.140625" />
      <stop
         id="stop102"
         style="stop-color:rgb(16.175842%,71.173096%,24.794006%);stop-opacity:1;"
         offset="0.148438" />
      <stop
         id="stop104"
         style="stop-color:rgb(16.371155%,71.289063%,24.946594%);stop-opacity:1;"
         offset="0.15625" />
      <stop
         id="stop106"
         style="stop-color:rgb(16.567993%,71.405029%,25.100708%);stop-opacity:1;"
         offset="0.164063" />
      <stop
         id="stop108"
         style="stop-color:rgb(16.763306%,71.520996%,25.253296%);stop-opacity:1;"
         offset="0.171875" />
      <stop
         id="stop110"
         style="stop-color:rgb(16.960144%,71.638489%,25.405884%);stop-opacity:1;"
         offset="0.179688" />
      <stop
         id="stop112"
         style="stop-color:rgb(17.155457%,71.754456%,25.559998%);stop-opacity:1;"
         offset="0.1875" />
      <stop
         id="stop114"
         style="stop-color:rgb(17.352295%,71.870422%,25.712585%);stop-opacity:1;"
         offset="0.195313" />
      <stop
         id="stop116"
         style="stop-color:rgb(17.547607%,71.987915%,25.866699%);stop-opacity:1;"
         offset="0.203125" />
      <stop
         id="stop118"
         style="stop-color:rgb(17.744446%,72.103882%,26.019287%);stop-opacity:1;"
         offset="0.210937" />
      <stop
         id="stop120"
         style="stop-color:rgb(17.939758%,72.219849%,26.171875%);stop-opacity:1;"
         offset="0.21875" />
      <stop
         id="stop122"
         style="stop-color:rgb(18.136597%,72.337341%,26.325989%);stop-opacity:1;"
         offset="0.226563" />
      <stop
         id="stop124"
         style="stop-color:rgb(18.331909%,72.453308%,26.478577%);stop-opacity:1;"
         offset="0.234375" />
      <stop
         id="stop126"
         style="stop-color:rgb(18.528748%,72.569275%,26.631165%);stop-opacity:1;"
         offset="0.242188" />
      <stop
         id="stop128"
         style="stop-color:rgb(18.72406%,72.685242%,26.785278%);stop-opacity:1;"
         offset="0.25" />
      <stop
         id="stop130"
         style="stop-color:rgb(18.920898%,72.802734%,26.937866%);stop-opacity:1;"
         offset="0.257813" />
      <stop
         id="stop132"
         style="stop-color:rgb(19.116211%,72.918701%,27.09198%);stop-opacity:1;"
         offset="0.265625" />
      <stop
         id="stop134"
         style="stop-color:rgb(19.313049%,73.034668%,27.244568%);stop-opacity:1;"
         offset="0.273438" />
      <stop
         id="stop136"
         style="stop-color:rgb(19.508362%,73.152161%,27.397156%);stop-opacity:1;"
         offset="0.28125" />
      <stop
         id="stop138"
         style="stop-color:rgb(19.7052%,73.268127%,27.55127%);stop-opacity:1;"
         offset="0.289063" />
      <stop
         id="stop140"
         style="stop-color:rgb(19.900513%,73.384094%,27.703857%);stop-opacity:1;"
         offset="0.296875" />
      <stop
         id="stop142"
         style="stop-color:rgb(20.097351%,73.501587%,27.857971%);stop-opacity:1;"
         offset="0.304688" />
      <stop
         id="stop144"
         style="stop-color:rgb(20.292664%,73.617554%,28.010559%);stop-opacity:1;"
         offset="0.3125" />
      <stop
         id="stop146"
         style="stop-color:rgb(20.489502%,73.733521%,28.163147%);stop-opacity:1;"
         offset="0.320313" />
      <stop
         id="stop148"
         style="stop-color:rgb(20.684814%,73.849487%,28.317261%);stop-opacity:1;"
         offset="0.328125" />
      <stop
         id="stop150"
         style="stop-color:rgb(20.881653%,73.96698%,28.469849%);stop-opacity:1;"
         offset="0.335938" />
      <stop
         id="stop152"
         style="stop-color:rgb(21.076965%,74.082947%,28.623962%);stop-opacity:1;"
         offset="0.34375" />
      <stop
         id="stop154"
         style="stop-color:rgb(21.273804%,74.198914%,28.77655%);stop-opacity:1;"
         offset="0.351563" />
      <stop
         id="stop156"
         style="stop-color:rgb(21.469116%,74.316406%,28.929138%);stop-opacity:1;"
         offset="0.359375" />
      <stop
         id="stop158"
         style="stop-color:rgb(21.665955%,74.432373%,29.083252%);stop-opacity:1;"
         offset="0.367188" />
      <stop
         id="stop160"
         style="stop-color:rgb(21.861267%,74.54834%,29.23584%);stop-opacity:1;"
         offset="0.375" />
      <stop
         id="stop162"
         style="stop-color:rgb(22.058105%,74.664307%,29.389954%);stop-opacity:1;"
         offset="0.382813" />
      <stop
         id="stop164"
         style="stop-color:rgb(22.253418%,74.781799%,29.542542%);stop-opacity:1;"
         offset="0.390625" />
      <stop
         id="stop166"
         style="stop-color:rgb(22.450256%,74.897766%,29.695129%);stop-opacity:1;"
         offset="0.398438" />
      <stop
         id="stop168"
         style="stop-color:rgb(22.645569%,75.013733%,29.849243%);stop-opacity:1;"
         offset="0.40625" />
      <stop
         id="stop170"
         style="stop-color:rgb(22.842407%,75.131226%,30.001831%);stop-opacity:1;"
         offset="0.414063" />
      <stop
         id="stop172"
         style="stop-color:rgb(23.03772%,75.247192%,30.155945%);stop-opacity:1;"
         offset="0.421875" />
      <stop
         id="stop174"
         style="stop-color:rgb(23.234558%,75.363159%,30.308533%);stop-opacity:1;"
         offset="0.429687" />
      <stop
         id="stop176"
         style="stop-color:rgb(23.429871%,75.480652%,30.461121%);stop-opacity:1;"
         offset="0.4375" />
      <stop
         id="stop178"
         style="stop-color:rgb(23.626709%,75.596619%,30.615234%);stop-opacity:1;"
         offset="0.445313" />
      <stop
         id="stop180"
         style="stop-color:rgb(23.822021%,75.712585%,30.767822%);stop-opacity:1;"
         offset="0.453125" />
      <stop
         id="stop182"
         style="stop-color:rgb(24.01886%,75.828552%,30.92041%);stop-opacity:1;"
         offset="0.460937" />
      <stop
         id="stop184"
         style="stop-color:rgb(24.214172%,75.946045%,31.074524%);stop-opacity:1;"
         offset="0.46875" />
      <stop
         id="stop186"
         style="stop-color:rgb(24.411011%,76.062012%,31.227112%);stop-opacity:1;"
         offset="0.476563" />
      <stop
         id="stop188"
         style="stop-color:rgb(24.606323%,76.177979%,31.381226%);stop-opacity:1;"
         offset="0.484375" />
      <stop
         id="stop190"
         style="stop-color:rgb(24.803162%,76.295471%,31.533813%);stop-opacity:1;"
         offset="0.492187" />
      <stop
         id="stop192"
         style="stop-color:rgb(24.998474%,76.411438%,31.686401%);stop-opacity:1;"
         offset="0.5" />
      <stop
         id="stop194"
         style="stop-color:rgb(25.195313%,76.527405%,31.840515%);stop-opacity:1;"
         offset="0.507813" />
      <stop
         id="stop196"
         style="stop-color:rgb(25.390625%,76.644897%,31.993103%);stop-opacity:1;"
         offset="0.515625" />
      <stop
         id="stop198"
         style="stop-color:rgb(25.587463%,76.760864%,32.147217%);stop-opacity:1;"
         offset="0.523438" />
      <stop
         id="stop200"
         style="stop-color:rgb(25.782776%,76.876831%,32.299805%);stop-opacity:1;"
         offset="0.53125" />
      <stop
         id="stop202"
         style="stop-color:rgb(25.979614%,76.992798%,32.452393%);stop-opacity:1;"
         offset="0.539062" />
      <stop
         id="stop204"
         style="stop-color:rgb(26.174927%,77.110291%,32.606506%);stop-opacity:1;"
         offset="0.546875" />
      <stop
         id="stop206"
         style="stop-color:rgb(26.371765%,77.226257%,32.759094%);stop-opacity:1;"
         offset="0.554688" />
      <stop
         id="stop208"
         style="stop-color:rgb(26.567078%,77.342224%,32.913208%);stop-opacity:1;"
         offset="0.5625" />
      <stop
         id="stop210"
         style="stop-color:rgb(26.763916%,77.459717%,33.065796%);stop-opacity:1;"
         offset="0.570313" />
      <stop
         id="stop212"
         style="stop-color:rgb(26.959229%,77.575684%,33.218384%);stop-opacity:1;"
         offset="0.578125" />
      <stop
         id="stop214"
         style="stop-color:rgb(27.156067%,77.69165%,33.372498%);stop-opacity:1;"
         offset="0.585938" />
      <stop
         id="stop216"
         style="stop-color:rgb(27.351379%,77.809143%,33.525085%);stop-opacity:1;"
         offset="0.59375" />
      <stop
         id="stop218"
         style="stop-color:rgb(27.548218%,77.92511%,33.679199%);stop-opacity:1;"
         offset="0.601563" />
      <stop
         id="stop220"
         style="stop-color:rgb(27.74353%,78.041077%,33.831787%);stop-opacity:1;"
         offset="0.609375" />
      <stop
         id="stop222"
         style="stop-color:rgb(27.940369%,78.157043%,33.984375%);stop-opacity:1;"
         offset="0.617188" />
      <stop
         id="stop224"
         style="stop-color:rgb(28.135681%,78.274536%,34.138489%);stop-opacity:1;"
         offset="0.625" />
      <stop
         id="stop226"
         style="stop-color:rgb(28.33252%,78.390503%,34.291077%);stop-opacity:1;"
         offset="0.632813" />
      <stop
         id="stop228"
         style="stop-color:rgb(28.527832%,78.50647%,34.443665%);stop-opacity:1;"
         offset="0.640625" />
      <stop
         id="stop230"
         style="stop-color:rgb(28.72467%,78.623962%,34.597778%);stop-opacity:1;"
         offset="0.648438" />
      <stop
         id="stop232"
         style="stop-color:rgb(28.919983%,78.739929%,34.750366%);stop-opacity:1;"
         offset="0.65625" />
      <stop
         id="stop234"
         style="stop-color:rgb(29.116821%,78.855896%,34.90448%);stop-opacity:1;"
         offset="0.664063" />
      <stop
         id="stop236"
         style="stop-color:rgb(29.312134%,78.973389%,35.057068%);stop-opacity:1;"
         offset="0.671875" />
      <stop
         id="stop238"
         style="stop-color:rgb(29.508972%,79.089355%,35.209656%);stop-opacity:1;"
         offset="0.679688" />
      <stop
         id="stop240"
         style="stop-color:rgb(29.704285%,79.205322%,35.36377%);stop-opacity:1;"
         offset="0.6875" />
      <stop
         id="stop242"
         style="stop-color:rgb(29.901123%,79.321289%,35.516357%);stop-opacity:1;"
         offset="0.695313" />
      <stop
         id="stop244"
         style="stop-color:rgb(30.096436%,79.438782%,35.670471%);stop-opacity:1;"
         offset="0.703125" />
      <stop
         id="stop246"
         style="stop-color:rgb(30.293274%,79.554749%,35.823059%);stop-opacity:1;"
         offset="0.710938" />
      <stop
         id="stop248"
         style="stop-color:rgb(30.488586%,79.670715%,35.975647%);stop-opacity:1;"
         offset="0.71875" />
      <stop
         id="stop250"
         style="stop-color:rgb(30.685425%,79.788208%,36.129761%);stop-opacity:1;"
         offset="0.726563" />
      <stop
         id="stop252"
         style="stop-color:rgb(30.880737%,79.904175%,36.282349%);stop-opacity:1;"
         offset="0.734375" />
      <stop
         id="stop254"
         style="stop-color:rgb(31.077576%,80.020142%,36.436462%);stop-opacity:1;"
         offset="0.742188" />
      <stop
         id="stop256"
         style="stop-color:rgb(31.272888%,80.137634%,36.58905%);stop-opacity:1;"
         offset="0.75" />
      <stop
         id="stop258"
         style="stop-color:rgb(31.469727%,80.253601%,36.741638%);stop-opacity:1;"
         offset="0.757812" />
      <stop
         id="stop260"
         style="stop-color:rgb(31.665039%,80.369568%,36.895752%);stop-opacity:1;"
         offset="0.765625" />
      <stop
         id="stop262"
         style="stop-color:rgb(31.861877%,80.485535%,37.04834%);stop-opacity:1;"
         offset="0.773438" />
      <stop
         id="stop264"
         style="stop-color:rgb(32.05719%,80.603027%,37.202454%);stop-opacity:1;"
         offset="0.78125" />
      <stop
         id="stop266"
         style="stop-color:rgb(32.254028%,80.718994%,37.355042%);stop-opacity:1;"
         offset="0.789063" />
      <stop
         id="stop268"
         style="stop-color:rgb(32.449341%,80.834961%,37.507629%);stop-opacity:1;"
         offset="0.796875" />
      <stop
         id="stop270"
         style="stop-color:rgb(32.646179%,80.952454%,37.661743%);stop-opacity:1;"
         offset="0.804687" />
      <stop
         id="stop272"
         style="stop-color:rgb(32.841492%,81.06842%,37.814331%);stop-opacity:1;"
         offset="0.8125" />
      <stop
         id="stop274"
         style="stop-color:rgb(33.03833%,81.184387%,37.966919%);stop-opacity:1;"
         offset="0.820313" />
      <stop
         id="stop276"
         style="stop-color:rgb(33.233643%,81.300354%,38.121033%);stop-opacity:1;"
         offset="0.828125" />
      <stop
         id="stop278"
         style="stop-color:rgb(33.430481%,81.417847%,38.273621%);stop-opacity:1;"
         offset="0.835938" />
      <stop
         id="stop280"
         style="stop-color:rgb(33.625793%,81.533813%,38.427734%);stop-opacity:1;"
         offset="0.84375" />
      <stop
         id="stop282"
         style="stop-color:rgb(33.822632%,81.64978%,38.580322%);stop-opacity:1;"
         offset="0.851562" />
      <stop
         id="stop284"
         style="stop-color:rgb(34.017944%,81.767273%,38.73291%);stop-opacity:1;"
         offset="0.859375" />
      <stop
         id="stop286"
         style="stop-color:rgb(34.214783%,81.88324%,38.887024%);stop-opacity:1;"
         offset="0.867187" />
      <stop
         id="stop288"
         style="stop-color:rgb(34.410095%,81.999207%,39.039612%);stop-opacity:1;"
         offset="0.875" />
      <stop
         id="stop290"
         style="stop-color:rgb(34.606934%,82.116699%,39.193726%);stop-opacity:1;"
         offset="0.882813" />
      <stop
         id="stop292"
         style="stop-color:rgb(34.802246%,82.232666%,39.346313%);stop-opacity:1;"
         offset="0.890625" />
      <stop
         id="stop294"
         style="stop-color:rgb(34.999084%,82.348633%,39.498901%);stop-opacity:1;"
         offset="0.898438" />
      <stop
         id="stop296"
         style="stop-color:rgb(35.194397%,82.4646%,39.653015%);stop-opacity:1;"
         offset="0.90625" />
      <stop
         id="stop298"
         style="stop-color:rgb(35.391235%,82.582092%,39.805603%);stop-opacity:1;"
         offset="0.914062" />
      <stop
         id="stop300"
         style="stop-color:rgb(35.586548%,82.698059%,39.959717%);stop-opacity:1;"
         offset="0.921875" />
      <stop
         id="stop302"
         style="stop-color:rgb(35.783386%,82.814026%,40.112305%);stop-opacity:1;"
         offset="0.929687" />
      <stop
         id="stop304"
         style="stop-color:rgb(35.978699%,82.931519%,40.264893%);stop-opacity:1;"
         offset="0.9375" />
      <stop
         id="stop306"
         style="stop-color:rgb(36.175537%,83.047485%,40.419006%);stop-opacity:1;"
         offset="0.945313" />
      <stop
         id="stop308"
         style="stop-color:rgb(36.37085%,83.163452%,40.571594%);stop-opacity:1;"
         offset="0.953125" />
      <stop
         id="stop310"
         style="stop-color:rgb(36.567688%,83.280945%,40.725708%);stop-opacity:1;"
         offset="0.960938" />
      <stop
         id="stop312"
         style="stop-color:rgb(36.763%,83.396912%,40.878296%);stop-opacity:1;"
         offset="0.96875" />
      <stop
         id="stop314"
         style="stop-color:rgb(36.959839%,83.512878%,41.030884%);stop-opacity:1;"
         offset="0.976562" />
      <stop
         id="stop316"
         style="stop-color:rgb(37.155151%,83.628845%,41.184998%);stop-opacity:1;"
         offset="0.984375" />
      <stop
         id="stop318"
         style="stop-color:rgb(37.35199%,83.746338%,41.337585%);stop-opacity:1;"
         offset="0.992188" />
      <stop
         id="stop320"
         style="stop-color:rgb(37.547302%,83.862305%,41.491699%);stop-opacity:1;"
         offset="1" />
    </linearGradient>
    <linearGradient
       inkscape:collect="always"
       xlink:href="#b"
       id="linearGradient1334"
       x1="53.464806"
       y1="0.75078475"
       x2="53.464806"
       y2="33.577499"
       gradientUnits="userSpaceOnUse" />
  </defs>
  <sodipodi:namedview
     units="px"
     showgrid="false"
     inkscape:document-rotation="0"
     inkscape:current-layer="layer1"
     inkscape:document-units="px"
     inkscape:cy="74.999999"
     inkscape:cx="128.21428"
     inkscape:zoom="1.4"
     inkscape:pageshadow="2"
     inkscape:pageopacity="0"
     borderopacity="1.0"
     bordercolor="#666666"
     pagecolor="#ffffff"
     id="base"
     inkscape:window-width="2560"
     inkscape:window-height="1371"
     inkscape:window-x="0"
     inkscape:window-y="0"
     inkscape:window-maximized="1"
     inkscape:pagecheckerboard="0" />
  <metadata
     id="metadata5">
    <rdf:RDF>
      <cc:Work
         rdf:about="">
        <dc:format>image/svg+xml</dc:format>
        <dc:type
           rdf:resource="http://purl.org/dc/dcmitype/StillImage" />
      </cc:Work>
    </rdf:RDF>
  </metadata>
  <g
     id="layer1"
     inkscape:groupmode="layer"
     inkscape:label="Layer 1">
    <rect
       style="fill:url(#linearGradient1334);stroke-width:3.47907;stroke-linecap:round;paint-order:markers stroke fill;fill-opacity:1"
       id="rect848"
       width="67.733337"
       height="33.866669"
       x="-1.7011719e-06"
       y="-8.5058593e-07" />
    <g
       id="g1599"
       transform="matrix(1.8391829,0,0,1.8391829,-27.284589,-15.55421)">
      <path
         fill="#c8daea"
         d="m 31.538333,22.754167 c -0.411437,0 -0.341524,-0.155353 -0.483425,-0.547106 L 29.845,18.225125 39.158333,12.7"
         id="path839"
         style="stroke-width:0.105833" />
      <path
         fill="#a9c9dd"
         d="m 31.538333,22.754167 c 0.3175,0 0.457782,-0.145204 0.635,-0.3175 l 1.693334,-1.646555 -2.112222,-1.273704"
         id="path841"
         style="stroke-width:0.105833" />
      <path
         fill="url(#w)"
         d="m 31.754233,19.516725 5.1181,3.781319 c 0.584041,0.322252 1.005565,0.155406 1.151043,-0.542237 l 2.08333,-9.817417 c 0.213296,-0.855155 -0.325978,-1.243013 -0.884704,-0.989351 l -12.233274,4.717097 c -0.835036,0.334931 -0.830167,0.800799 -0.15221,1.00838 l 3.139334,0.979837 7.267893,-4.585229 c 0.343101,-0.208058 0.657997,-0.0962 0.399542,0.13318"
         id="path843"
         style="fill:url(#w);stroke-width:0.105833" />
    </g>
  </g>
</svg>
