<?xml version="1.0" encoding="UTF-8" standalone="no"?>
<svg
   xmlns:dc="http://purl.org/dc/elements/1.1/"
   xmlns:cc="http://creativecommons.org/ns#"
   xmlns:rdf="http://www.w3.org/1999/02/22-rdf-syntax-ns#"
   xmlns:svg="http://www.w3.org/2000/svg"
   xmlns="http://www.w3.org/2000/svg"
   xmlns:xlink="http://www.w3.org/1999/xlink"
   xmlns:sodipodi="http://sodipodi.sourceforge.net/DTD/sodipodi-0.dtd"
   xmlns:inkscape="http://www.inkscape.org/namespaces/inkscape"
   inkscape:version="1.0.1 (3bc2e813f5, 2020-09-07, custom)"
   id="svg8"
   version="1.1"
   viewBox="0 0 67.733332 33.866668"
   height="128"
   width="256"
   sodipodi:docname="unict.svg">
  <defs
     id="defs2">
    <linearGradient
       inkscape:collect="always"
       id="linearGradient867">
      <stop
         style="stop-color:#0e4c92;stop-opacity:1"
         offset="0"
         id="stop863" />
      <stop
         style="stop-color:#113865;stop-opacity:1"
         offset="1"
         id="stop865" />
    </linearGradient>
    <linearGradient
       inkscape:collect="always"
       xlink:href="#linearGradient867"
       id="linearGradient869"
       x1="15.931248"
       y1="-0.099704064"
       x2="15.931248"
       y2="33.818729"
       gradientUnits="userSpaceOnUse" />
  </defs>
  <sodipodi:namedview
     units="px"
     showgrid="false"
     inkscape:document-rotation="0"
     inkscape:current-layer="layer1"
     inkscape:document-units="px"
     inkscape:cy="75.735229"
     inkscape:cx="145.64986"
     inkscape:zoom="2.8"
     inkscape:pageshadow="2"
     inkscape:pageopacity="0"
     borderopacity="1.0"
     bordercolor="#666666"
     pagecolor="#ffffff"
     id="base"
     inkscape:window-width="1530"
     inkscape:window-height="1205"
     inkscape:window-x="26"
     inkscape:window-y="23"
     inkscape:window-maximized="0" />
  <metadata
     id="metadata5">
    <rdf:RDF>
      <cc:Work
         rdf:about="">
        <dc:format>image/svg+xml</dc:format>
        <dc:type
           rdf:resource="http://purl.org/dc/dcmitype/StillImage" />
        <dc:title></dc:title>
      </cc:Work>
    </rdf:RDF>
  </metadata>
  <g
     id="layer1"
     inkscape:groupmode="layer"
     inkscape:label="Layer 1">
    <rect
       style="fill:url(#linearGradient869);stroke-width:3.47907;stroke-linecap:round;paint-order:markers stroke fill;fill-opacity:1"
       id="rect848"
       width="67.733337"
       height="33.866669"
       x="-1.7011719e-06"
       y="-8.5058593e-07" />
    <path
       style="fill:#ffffff;stroke-width:1"
       d="m 32.981736,29.607539 c -3.1104,-0.22487 -6.01569,-1.587093 -8.201786,-3.845631 -0.592552,-0.612188 -0.967512,-1.072719 -1.411996,-1.734236 -1.921196,-2.859269 -2.597849,-6.263431 -1.916312,-9.640731 0.731356,-3.624173 3.055894,-6.7726774 6.351854,-8.6033654 2.52154,-1.400551 5.67211,-1.887669 8.50826,-1.315486 1.13736,0.229458 2.05973,0.54545 3.13265,1.073211 2.00677,0.987112 3.74958,2.519397 4.98217,4.380371 2.07819,3.1376364 2.65779,7.0214394 1.58726,10.6358564 -1.36072,4.594162 -5.31778,8.105222 -10.02709,8.896933 -0.94221,0.1584 -2.10914,0.217845 -3.00501,0.153078 z m 2.69089,-0.377362 c 2.16745,-0.334496 4.16152,-1.200978 5.86701,-2.549384 0.56265,-0.444841 1.59431,-1.476499 2.03915,-2.039143 1.24553,-1.575378 2.07945,-3.395391 2.47502,-5.401714 0.20026,-1.015676 0.25799,-2.655071 0.13157,-3.735848 -0.6183,-5.285638 -4.57808,-9.6377834 -9.7654,-10.7330204 -1.61255,-0.340471 -3.41172,-0.347449 -5.02706,-0.0195 -3.37253,0.684701 -6.386186,2.834128 -8.173346,5.8294674 -0.85396,1.431266 -1.38396,2.934774 -1.643651,4.662719 -0.101653,0.676383 -0.124517,2.198383 -0.04434,2.951214 0.253647,2.381476 1.160844,4.602758 2.645299,6.47704 0.423622,0.534869 1.421718,1.539674 1.934238,1.947246 1.90216,1.512634 4.11032,2.421752 6.52708,2.687255 0.6209,0.06821 2.38543,0.02382 3.03442,-0.07634 z m -2.47618,-0.631436 c -0.0354,-0.0076 -0.19585,-0.02638 -0.35649,-0.04162 -0.24524,-0.02327 -0.28399,-0.03745 -0.24165,-0.08846 0.0277,-0.03342 0.10366,-0.06076 0.16873,-0.06076 0.14899,0 0.20359,-0.06564 0.23905,-0.287407 l 0.0281,-0.175791 -0.16579,-0.02466 c -0.0912,-0.01357 -0.31554,-0.03722 -0.49858,-0.05256 -0.32738,-0.02745 -0.33279,-0.02982 -0.33279,-0.145612 0,-0.09412 0.1054,-0.220028 0.52603,-0.628339 0.45002,-0.436846 0.55982,-0.521307 0.75988,-0.584519 0.12862,-0.04064 0.24195,-0.0658 0.25185,-0.0559 0.01,0.0099 -0.0132,0.276942 -0.0514,0.593445 -0.092,0.76369 -0.0973,0.717235 0.081,0.717235 0.0947,0 0.1503,0.02065 0.1503,0.05582 0,0.09129 -0.095,0.158883 -0.2233,0.158883 -0.11498,0 -0.12023,0.009 -0.12023,0.206118 0,0.227818 0.0531,0.309178 0.20182,0.309178 0.11289,0 0.13207,0.06391 0.0308,0.102759 -0.0688,0.0264 -0.32934,0.02768 -0.44737,0.0022 z m -0.10336,-1.310867 c 0.0258,-0.222411 0.0397,-0.413041 0.0309,-0.423623 -0.009,-0.01058 -0.18877,0.152665 -0.39985,0.362768 -0.21108,0.210103 -0.37466,0.39113 -0.36351,0.402284 0.0225,0.02246 0.57455,0.08331 0.64262,0.07083 0.0236,-0.0043 0.0641,-0.189848 0.0899,-0.41226 z m 1.27631,1.289971 c -0.13275,-0.04089 -0.40001,-0.268846 -0.40001,-0.341192 0,-0.0405 0.24869,-0.258685 0.29315,-0.257185 0.0159,4.86e-4 0.059,0.06209 0.0958,0.136791 0.0961,0.195051 0.26848,0.309507 0.45807,0.304131 0.29657,-0.0084 0.44333,-0.3189 0.29046,-0.614523 -0.0863,-0.166822 -0.18585,-0.213847 -0.45286,-0.213847 -0.22024,0 -0.22205,-0.0011 -0.15972,-0.09496 0.0347,-0.05223 0.12278,-0.110437 0.19578,-0.129352 0.18757,-0.04861 0.32324,-0.233473 0.29182,-0.39766 -0.0318,-0.166428 -0.20993,-0.322737 -0.36768,-0.322737 -0.1329,0 -0.30132,0.167415 -0.30132,0.299522 0,0.07181 -0.29815,0.318407 -0.33745,0.279102 -0.0522,-0.05215 10e-4,-0.339849 0.0854,-0.45761 0.24367,-0.342209 0.97109,-0.428442 1.23595,-0.146518 0.17625,0.187616 0.11767,0.55122 -0.10829,0.672153 -0.1327,0.07102 -0.13093,0.126294 0.004,0.126294 0.0587,0 0.16979,0.05639 0.24691,0.125302 0.12516,0.111825 0.14024,0.149926 0.14024,0.354266 0,0.285861 -0.11522,0.462654 -0.38738,0.594407 -0.21885,0.105945 -0.61855,0.146559 -0.82291,0.08362 z m -3.23413,-0.263028 c -0.1299,-0.04512 -0.3956,-0.122308 -0.59044,-0.171516 -0.19485,-0.04921 -0.35427,-0.104355 -0.35427,-0.122546 0,-0.05996 0.128,-0.08367 0.314,-0.05818 0.12936,0.01773 0.19776,0.0075 0.23287,-0.0348 0.0477,-0.05745 0.44078,-1.346931 0.44078,-1.445876 0,-0.03287 -0.0792,-0.03969 -0.25172,-0.02166 -0.29152,0.03047 -0.35525,-0.01839 -0.18662,-0.14306 0.0895,-0.06615 0.20815,-0.09137 0.51114,-0.108651 0.46838,-0.02671 0.4749,-0.02008 0.35782,0.363572 -0.25483,0.835001 -0.4341,1.507168 -0.41514,1.556579 0.0119,0.03104 0.0807,0.0694 0.15289,0.08525 0.1624,0.03567 0.20167,0.09129 0.10122,0.143364 -0.0521,0.027 -0.15138,0.0135 -0.31253,-0.04247 z m 5.4542,-0.02142 c 10e-4,-0.0675 0.0737,-0.150942 0.17604,-0.202741 0.0867,-0.04386 0.10202,-0.08275 0.0998,-0.252826 -10e-4,-0.110543 -0.016,-0.21436 -0.0323,-0.2307 -0.0163,-0.01634 -0.22771,0.02455 -0.46971,0.09088 -0.55602,0.152391 -0.5234,0.15201 -0.54003,0.0063 -0.01,-0.08339 0.0796,-0.328931 0.27283,-0.751473 0.22557,-0.493292 0.32509,-0.662046 0.46503,-0.788521 0.0979,-0.0885 0.19983,-0.160967 0.22645,-0.161031 0.0266,-4.3e-5 0.0906,0.168965 0.14207,0.375621 0.0515,0.206655 0.1233,0.478584 0.15952,0.604285 l 0.0658,0.228549 0.16782,-0.02835 c 0.185,-0.03126 0.18571,-0.03054 0.12593,0.126696 -0.027,0.07109 -0.0746,0.110149 -0.13419,0.110149 -0.0778,0 -0.0886,0.01853 -0.0686,0.118089 0.013,0.06495 0.0449,0.173628 0.0707,0.241511 0.0439,0.11527 0.0584,0.121598 0.21978,0.0958 0.16248,-0.02598 0.17003,-0.02256 0.12713,0.05762 -0.0256,0.04777 -0.12554,0.10607 -0.2274,0.132617 -0.20624,0.05375 -0.71274,0.207605 -0.79368,0.241085 -0.0295,0.01222 -0.0534,0.0061 -0.053,-0.01358 z m -0.12722,-0.853956 c 0.15227,-0.04174 0.28277,-0.08032 0.29,-0.08573 0.0145,-0.01084 -0.0977,-0.47073 -0.17181,-0.704514 l -0.0471,-0.148413 -0.22993,0.487554 c -0.24242,0.514061 -0.26433,0.583138 -0.17398,0.548468 0.0308,-0.0118 0.18052,-0.05562 0.33279,-0.09736 z m -7.58699,-0.944932 c -0.0669,-0.102061 -0.0684,-0.126771 -0.0133,-0.223637 0.0985,-0.173415 0.19394,-0.214048 0.32612,-0.138854 0.24949,0.141933 0.19787,0.440798 -0.0802,0.464058 -0.13089,0.01096 -0.17014,-0.0062 -0.23264,-0.101567 z m 0.36393,-0.102436 c 0.0191,-0.135456 -0.10101,-0.231457 -0.21398,-0.170997 -0.0786,0.04207 -0.10935,0.210758 -0.0493,0.270758 0.0168,0.01683 0.0796,0.02488 0.13956,0.01789 0.0783,-0.0091 0.11312,-0.04222 0.12377,-0.117654 z m 9.78246,0.133772 c -0.0391,-0.04319 -0.0711,-0.120485 -0.0711,-0.171766 0,-0.116861 0.14403,-0.265002 0.25765,-0.265002 0.11789,0 0.25764,0.149739 0.25764,0.276051 0,0.218805 -0.29505,0.325552 -0.44423,0.160717 z m 0.3137,-0.0697 c 0.10231,-0.123275 -0.0388,-0.31236 -0.18989,-0.254394 -0.15624,0.05995 -0.10534,0.316744 0.0628,0.316744 0.0414,0 0.0987,-0.02806 0.12711,-0.06235 z m 1.03889,-0.240303 c -0.14974,-0.173878 -0.18126,-0.238155 -0.15944,-0.325096 l 0.0272,-0.108366 0.1502,0.13188 c 0.19785,0.173712 0.37605,0.174522 0.61313,0.0028 0.098,-0.071 0.1782,-0.13874 0.1782,-0.150531 0,-0.0118 -0.10954,-0.155528 -0.24343,-0.319418 -0.20354,-0.24915 -0.25616,-0.291171 -0.32107,-0.256428 -0.12039,0.06443 -0.17623,0.196939 -0.12407,0.29441 0.054,0.100839 0.0588,0.303411 0.007,0.303411 -0.0205,0 -0.089,-0.07822 -0.15227,-0.173822 -0.0633,-0.0956 -0.18088,-0.246709 -0.26136,-0.335792 -0.1056,-0.116885 -0.13951,-0.188023 -0.12184,-0.255588 0.0135,-0.05149 0.0304,-0.09362 0.0376,-0.09362 0.007,0 0.07,0.05684 0.13948,0.126321 0.13575,0.135751 0.25158,0.138575 0.36753,0.009 0.0569,-0.06365 0.0387,-0.102343 -0.17972,-0.38011 -0.13371,-0.170084 -0.27301,-0.31018 -0.30955,-0.311324 -0.0748,-0.0023 -0.35782,0.279042 -0.39903,0.396687 -0.0148,0.04219 10e-4,0.15813 0.0362,0.257648 0.0675,0.193733 0.0849,0.418908 0.0321,0.41432 -0.0177,-0.0015 -0.1273,-0.149452 -0.24352,-0.3287 l -0.21131,-0.325904 0.10657,-0.08998 c 0.28496,-0.240611 1.04274,-0.867764 1.09271,-0.904343 0.0923,-0.06761 0.11723,0.0053 0.0487,0.142713 -0.0789,0.158159 -0.0823,0.152119 0.50583,0.885379 0.43545,0.542854 0.56211,0.639156 0.71502,0.543665 0.0669,-0.04179 0.0794,-0.03659 0.0794,0.03309 0,0.05261 -0.12944,0.183757 -0.3559,0.360587 -0.19574,0.152848 -0.46029,0.367011 -0.58788,0.475919 -0.12758,0.108909 -0.24279,0.198005 -0.25601,0.197994 -0.0132,-1.3e-5 -0.10803,-0.09755 -0.21068,-0.216751 z m -13.56107,-0.03194 c -0.14382,-0.07796 -0.57321,-0.463916 -0.57321,-0.515236 0,-0.05233 0.33103,-0.395466 0.38151,-0.395466 0.06,0 0.0601,0.03804 4.9e-4,0.209056 -0.061,0.174996 -0.0206,0.330015 0.11982,0.460194 0.20888,0.193577 0.52876,0.09799 0.52876,-0.158005 0,-0.05756 -0.0385,-0.171974 -0.0855,-0.254268 -0.24707,-0.432441 -0.30099,-0.564905 -0.30099,-0.739408 0,-0.229393 0.14938,-0.464436 0.35813,-0.563494 0.30452,-0.144502 0.55599,-0.06107 1.01119,0.335466 l 0.29356,0.25572 -0.19806,0.247045 c -0.17376,0.216747 -0.35658,0.342597 -0.41411,0.285068 -0.0104,-0.01035 0.0195,-0.09405 0.0664,-0.186002 0.14984,-0.293884 0.0781,-0.599173 -0.171,-0.728001 -0.23408,-0.121045 -0.42673,-0.06766 -0.51372,0.142358 -0.0604,0.145887 -0.0213,0.261035 0.22806,0.670273 0.10915,0.179168 0.15543,0.305503 0.15543,0.424344 0,0.443965 -0.48953,0.725689 -0.8868,0.510356 z m 6.12563,-0.52919 c -2.97624,-0.339698 -5.55444,-2.133415 -6.88414,-4.789472 -0.629836,-1.258081 -0.931175,-2.535011 -0.931175,-3.945864 0,-3.382561 1.927405,-6.43173 4.993005,-7.8989604 1.22823,-0.587845 2.35396,-0.843468 3.72408,-0.845638 2.40616,-0.0038 4.55489,0.89354 6.25401,2.6117934 1.19458,1.208031 1.99169,2.710476 2.3579,4.444298 0.0927,0.439003 0.11617,0.686845 0.13556,1.432702 0.0318,1.222988 -0.0767,2.009831 -0.41811,3.031007 -1.20567,3.606692 -4.60657,6.042312 -8.38134,6.002463 -0.29025,-0.0031 -0.67265,-0.02211 -0.84979,-0.04233 z m 2.17636,-0.319495 c 2.39365,-0.358436 4.52927,-1.743066 5.87097,-3.806444 0.30499,-0.469041 0.7532,-1.39585 0.91999,-1.902355 1.20948,-3.672976 -0.15226,-7.610962 -3.38495,-9.7888514 -0.46045,-0.31021 -1.4449,-0.792022 -1.96745,-0.962913 -2.70585,-0.884904 -5.59316,-0.399035 -7.84464,1.3200804 -0.35235,0.269039 -1.09481,0.992821 -1.39872,1.363544 -0.62643,0.764135 -1.15993,1.734326 -1.47575,2.683704 -0.24838,0.74665 -0.3563,1.283466 -0.419162,2.085084 -0.209947,2.677167 0.928422,5.36465 3.009812,7.105624 1.42044,1.188128 3.00454,1.824705 4.94296,1.986359 0.32365,0.02699 1.32905,-0.02125 1.74694,-0.08383 z m -2.04753,-0.281749 c -1.50733,-0.15096 -2.94612,-0.73128 -4.22972,-1.706022 -0.65852,-0.500065 -1.47701,-1.436853 -1.9755,-2.261024 -0.86861,-1.436103 -1.27395,-3.287501 -1.09393,-4.996538 0.35425,-3.363302 2.76377,-6.1866004 6.01091,-7.0431584 0.71219,-0.187869 1.30708,-0.262989 2.08265,-0.262989 2.20753,0 4.19572,0.823029 5.75504,2.3823414 1.19036,1.190366 1.96565,2.680359 2.28042,4.382647 0.0992,0.53679 0.11312,2.134223 0.0229,2.639159 -0.31261,1.749699 -1.02564,3.177012 -2.19608,4.39599 -1.73076,1.802542 -4.19367,2.716266 -6.6567,2.469594 z m 1.93348,-0.340335 c 2.10907,-0.259495 4.09392,-1.441861 5.33463,-3.177807 0.32843,-0.459528 0.82463,-1.426879 1.01394,-1.976697 0.0698,-0.202608 0.17654,-0.589996 0.23729,-0.860865 0.11404,-0.508482 0.22696,-1.531212 0.182,-1.648388 -0.0188,-0.04902 -0.0679,-0.06127 -0.18738,-0.04673 -0.089,0.01084 -1.58445,0.02108 -3.32315,0.02276 l -3.16126,0.0031 -0.0234,0.174836 c -0.031,0.231123 -0.20355,0.484146 -0.42838,0.628161 -0.23703,0.151837 -0.2352,0.149882 -0.16381,0.175168 0.14091,0.04991 0.42977,0.370719 0.52173,0.579444 0.13446,0.305142 0.16363,1.160562 0.0648,1.899167 -0.14738,1.101139 -0.20485,1.728947 -0.18303,1.999384 0.0315,0.390749 0.21981,0.931071 0.44269,1.270401 0.10317,0.157084 0.18758,0.290153 0.18758,0.29571 0,0.0082 -0.31153,-0.0812 -0.77979,-0.223823 -0.0661,-0.02014 -0.0663,-0.0079 -0.002,0.170062 0.0587,0.163155 0.0608,0.218963 0.0144,0.374043 -0.03,0.100252 -0.10428,0.228313 -0.165,0.28458 -0.13256,0.122858 -0.12302,0.124169 0.41858,0.05753 z m 5.02301,-5.516128 c 0,-0.04499 0.0453,-0.06441 0.15029,-0.06441 0.10497,0 0.1503,0.01943 0.1503,0.06441 0,0.04499 -0.0453,0.06441 -0.1503,0.06441 -0.10496,0 -0.15029,-0.01943 -0.15029,-0.06441 z m -2.50374,-0.478343 c -0.0613,-0.06127 0.0298,-0.101365 0.23038,-0.101365 0.15997,0 0.21218,0.01586 0.21218,0.06441 0,0.04837 -0.0517,0.06441 -0.20755,0.06441 -0.11416,0 -0.21991,-0.01235 -0.23501,-0.02746 z m 2.41786,-0.03695 c 0,-0.04945 0.0549,-0.06441 0.23617,-0.06441 0.18131,0 0.23618,0.01496 0.23618,0.06441 0,0.04945 -0.0549,0.06441 -0.23618,0.06441 -0.1813,0 -0.23617,-0.01496 -0.23617,-0.06441 z m -2.79119,-0.429415 c 0,-0.05407 0.093,-0.06441 0.57971,-0.06441 0.48667,0 0.57971,0.01034 0.57971,0.06441 0,0.05407 -0.093,0.06441 -0.57971,0.06441 -0.48667,0 -0.57971,-0.01034 -0.57971,-0.06441 z m 2.44766,0 c 0,-0.05407 0.093,-0.06441 0.5797,-0.06441 0.48667,0 0.57971,0.01034 0.57971,0.06441 0,0.05407 -0.093,0.06441 -0.57971,0.06441 -0.48667,0 -0.5797,-0.01034 -0.5797,-0.06441 z m -2.4906,-0.43056 c 0,-0.05635 0.0885,-0.06389 0.62986,-0.05368 0.45701,0.0086 0.63475,0.02661 0.6477,0.06556 0.0137,0.04136 -0.13082,0.05368 -0.62986,0.05368 -0.55215,0 -0.6477,-0.0097 -0.6477,-0.06556 z m 2.44765,0.0011 c 0,-0.05429 0.0978,-0.06441 0.62265,-0.06441 0.52484,0 0.62265,0.01011 0.62265,0.06441 0,0.05429 -0.0978,0.06441 -0.62265,0.06441 -0.52483,0 -0.62265,-0.01011 -0.62265,-0.06441 z m -2.53353,-0.386471 c 0,-0.05473 0.10974,-0.06441 0.73,-0.06441 0.62026,0 0.73,0.0097 0.73,0.06441 0,0.05473 -0.10974,0.06441 -0.73,0.06441 -0.62026,0 -0.73,-0.0097 -0.73,-0.06441 z m 2.40471,0 c 0,-0.0548 0.11212,-0.06441 0.75147,-0.06441 0.63935,0 0.75148,0.0096 0.75148,0.06441 0,0.0548 -0.11213,0.06441 -0.75148,0.06441 -0.63935,0 -0.75147,-0.0096 -0.75147,-0.06441 z m -5.02216,7.18057 c 0.13181,-0.103874 0.21273,-0.26788 0.21273,-0.431163 0,-0.132102 -0.0302,-0.196669 -0.146,-0.312504 -0.123,-0.123001 -0.17659,-0.146 -0.34022,-0.146 -0.45009,0 -0.64824,0.563589 -0.2981,0.847876 0.13346,0.108367 0.45708,0.132026 0.57159,0.04179 z m -0.81927,-0.83997 c 0.0968,-0.0519 0.19611,-0.166436 0.28867,-0.332796 0.0776,-0.139516 0.14136,-0.264814 0.14164,-0.278437 3.3e-4,-0.01362 -0.0537,-0.01681 -0.12002,-0.0071 -0.20837,0.03058 -0.25111,-0.0784 -0.13486,-0.343913 0.0781,-0.178435 0.0975,-0.295979 0.0929,-0.56395 -0.004,-0.257087 0.0145,-0.380415 0.0784,-0.512626 0.0463,-0.09575 0.0841,-0.179015 0.0841,-0.18503 0,-0.006 -0.082,-0.01688 -0.18213,-0.02414 -0.24022,-0.01742 -0.26244,-0.120952 -0.0688,-0.320668 0.13652,-0.140803 0.14387,-0.164633 0.14938,-0.484417 0.003,-0.184979 0.0292,-0.407363 0.0579,-0.494182 0.0448,-0.135808 0.0419,-0.16908 -0.0206,-0.238205 -0.0918,-0.101468 -0.18903,-0.370711 -0.19149,-0.530426 -0.003,-0.183757 0.11769,-0.400178 0.25437,-0.456794 0.15292,-0.06334 0.34628,0.02429 0.42245,0.191456 0.10935,0.240005 0.0372,0.679431 -0.16351,0.995931 -0.11831,0.186558 -0.12711,0.225924 -0.10356,0.463399 0.0152,0.153708 0.006,0.3101 -0.0224,0.383567 -0.0849,0.218904 -0.0139,0.171062 0.1767,-0.119016 0.1746,-0.26574 0.32453,-0.378435 0.27805,-0.208999 -0.0113,0.04133 -0.0436,0.181426 -0.0718,0.311324 -0.0281,0.129897 -0.13126,0.371442 -0.22913,0.536766 -0.16815,0.284044 -0.17933,0.324224 -0.20328,0.730003 -0.0139,0.236176 -0.0402,0.463229 -0.0583,0.50456 -0.0234,0.05332 -0.0138,0.07515 0.0331,0.07515 0.0364,0 0.0781,-0.03766 0.0927,-0.08369 0.0373,-0.117549 0.26929,-0.357286 0.31712,-0.327725 0.0228,0.01412 0.005,0.135687 -0.0417,0.286214 -0.0448,0.143925 -0.0814,0.309039 -0.0814,0.366919 0,0.144251 0.1522,0.430729 0.26893,0.506203 0.1177,0.07609 0.55233,0.248672 0.57334,0.227656 0.008,-0.0084 -0.0514,-0.149177 -0.13287,-0.312897 -0.33121,-0.665694 -0.36129,-1.117593 -0.1699,-2.552093 0.15598,-1.16909 0.16325,-1.979201 0.0207,-2.307109 -0.30665,-0.705386 -1.08567,-0.865218 -1.59945,-0.328164 -0.2877,0.300732 -0.38115,1.043981 -0.20997,1.669958 0.36965,1.351709 0.48585,2.183519 0.39713,2.842796 -0.0502,0.37284 -0.10179,0.520736 -0.28516,0.817087 l -0.11292,0.182501 h 0.16413 c 0.0903,0 0.23053,-0.03561 0.31168,-0.07913 z m 0.94762,-3.313237 c 9e-5,-0.03543 0.0281,-0.219 0.0623,-0.407942 0.0745,-0.412229 0.0819,-0.881309 0.0177,-1.116473 -0.0919,-0.336629 -0.36034,-0.579709 -0.64007,-0.579709 -0.0781,0 -0.12247,-0.01783 -0.10695,-0.04294 0.0453,-0.07334 0.37832,-0.04759 0.52264,0.04041 0.0749,0.04567 0.18989,0.174681 0.25553,0.286697 0.16871,0.287875 0.19269,0.801585 0.0634,1.358485 -0.0891,0.383861 -0.17493,0.610846 -0.1745,0.461472 z m -4.27416,0.75896 c 0.2465,-0.120929 0.49781,-0.208931 1.30971,-0.458635 0.38663,-0.118909 0.61546,-0.213235 0.68706,-0.283208 l 0.10735,-0.104919 0.0116,-2.961991 0.0116,-2.961989 h -2.77058 -2.77058 v 2.878446 c 0,3.147368 -0.003,3.105808 0.24777,3.235583 0.0691,0.03576 0.41879,0.154456 0.77699,0.263778 1.06478,0.324971 1.33339,0.455484 1.61133,0.782917 l 0.12402,0.146112 0.21951,-0.215381 c 0.12073,-0.11846 0.31612,-0.26278 0.43421,-0.320713 z m -0.79859,0.116302 c -0.20664,-0.214233 -0.63473,-0.405655 -1.4773,-0.660586 -0.4015,-0.12148 -0.77319,-0.24872 -0.82598,-0.282759 l -0.096,-0.06189 -0.0114,-2.672523 c -0.006,-1.469889 -0.005,-2.75465 0.002,-2.855025 l 0.0132,-0.182501 h 2.57401 2.57401 v 2.766919 c 0,1.728881 -0.016,2.809022 -0.0427,2.879145 -0.0508,0.133597 -0.15407,0.180236 -0.86268,0.389604 -0.81778,0.241621 -1.25535,0.43047 -1.49347,0.644557 l -0.20748,0.186544 z m 0.26918,-0.173386 c 0.0734,-0.06644 0.0785,-0.17591 0.0785,-1.682678 0,-1.596772 -8.1e-4,-1.612528 -0.0936,-1.711238 l -0.0936,-0.09963 -0.0996,0.09361 -0.0996,0.09361 v 1.62185 1.621849 l 0.0954,0.06685 c 0.11784,0.08254 0.11661,0.08256 0.21251,-0.0042 z m -0.86718,-1.507025 -9.7e-4,-1.105738 -0.19224,0.201471 -0.19224,0.201472 v 0.853036 0.853036 l 0.11809,0.04666 c 0.28353,0.112039 0.26848,0.171127 0.26738,-1.049939 z m 1.74781,1.05417 0.14261,-0.05157 v -0.855731 -0.85573 l -0.15841,-0.17697 c -0.0871,-0.09733 -0.17408,-0.183411 -0.19324,-0.191282 -0.0192,-0.0079 -0.0348,0.480047 -0.0348,1.084268 0,0.814954 0.0131,1.098581 0.0506,1.098581 0.0279,0 0.1148,-0.0232 0.19324,-0.05157 z m -2.693,-0.667698 -0.001,-0.418678 -0.29523,0.322059 c -0.16238,0.177133 -0.28595,0.331722 -0.2746,0.343531 0.0339,0.03531 0.41662,0.164849 0.49764,0.168437 0.0667,0.003 0.075,-0.04344 0.0737,-0.415349 z m 3.86012,0.307631 0.14423,-0.06023 -0.13992,-0.161274 c -0.29419,-0.339097 -0.42818,-0.483333 -0.449,-0.483333 -0.0119,0 -0.0216,0.185726 -0.0216,0.412722 v 0.412722 l 0.16103,-0.03019 c 0.0886,-0.0166 0.22593,-0.05729 0.30525,-0.09042 z m -3.4077,-1.502117 1.14847,-1.312573 -0.10618,-0.115225 c -0.0584,-0.06337 -0.57398,-0.651453 -1.14573,-1.306846 -0.57176,-0.655391 -1.04809,-1.19162 -1.05853,-1.19162 -0.0104,0 -0.019,1.178738 -0.019,2.619419 0,1.440681 0.007,2.619419 0.0162,2.619419 0.009,0 0.53305,-0.590657 1.16471,-1.312574 z m -0.39391,-0.04007 c 1.6e-4,-0.165324 0.008,-0.227695 0.0173,-0.138602 0.009,0.08909 0.009,0.224359 -3.3e-4,0.300589 -0.009,0.07623 -0.0171,0.0033 -0.0169,-0.161987 z m -0.27174,0.09295 c 0,-0.01804 0.0315,-0.0937 0.07,-0.168136 0.0778,-0.150489 0.092,-0.574413 0.0216,-0.644839 -0.0303,-0.03032 -0.0666,0.01175 -0.11549,0.133933 -0.0392,0.09798 -0.0906,0.178148 -0.11416,0.178148 -0.0251,0 -0.0288,-0.03106 -0.009,-0.07515 0.0187,-0.04133 0.0466,-0.210412 0.0621,-0.375736 0.0204,-0.21807 0.03,-0.250487 0.035,-0.118088 0.006,0.161243 0.0188,0.1825 0.10839,0.1825 0.0905,0 0.10424,0.02441 0.12734,0.225442 0.0299,0.260329 -0.0209,0.529795 -0.11827,0.627158 -0.0372,0.03716 -0.0676,0.05281 -0.0676,0.03477 z m 0.416,-0.232511 c -0.0403,-0.112184 -0.0703,-0.252281 -0.0666,-0.311325 0.004,-0.05904 -0.007,-0.177117 -0.0247,-0.262387 -0.0469,-0.231831 0.0609,-0.246717 0.23323,-0.03222 0.16766,0.208639 0.12725,0.289105 -0.0431,0.08588 l -0.12099,-0.144311 0.0237,0.273135 c 0.013,0.150224 0.05,0.325316 0.0822,0.389091 0.0662,0.130982 0.075,0.206104 0.0241,0.206104 -0.019,0 -0.0675,-0.09179 -0.10778,-0.203971 z m -0.60923,-0.05368 c -0.0146,-0.02362 -0.006,-0.04294 0.0199,-0.04294 0.0255,0 0.0684,-0.04831 0.0953,-0.107354 0.0477,-0.104589 0.16396,-0.150279 0.16396,-0.06441 0,0.02362 -0.0162,0.04294 -0.0361,0.04294 -0.0198,0 -0.0581,0.04831 -0.085,0.107354 -0.0511,0.112183 -0.11301,0.137396 -0.15811,0.06441 z m 0.75024,0.04294 c -0.004,-0.01182 -0.0113,-0.105451 -0.0162,-0.208093 -0.007,-0.151473 4.8e-4,-0.173714 0.0412,-0.118088 0.0276,0.03769 0.0915,0.06853 0.142,0.06853 0.0505,0 0.0919,0.01932 0.0919,0.04294 0,0.02362 -0.0206,0.04294 -0.0458,0.04294 -0.0263,0 -0.0342,0.03662 -0.0186,0.08588 0.0335,0.105513 -0.0433,0.115108 -0.0859,0.01073 -0.0282,-0.06898 -0.0336,-0.0681 -0.066,0.01073 -0.0194,0.04724 -0.0386,0.07622 -0.0426,0.06441 z m -0.96588,-0.707592 c -0.0279,-0.408498 -0.005,-0.846272 0.0524,-0.995323 0.045,-0.117317 0.18754,-0.06111 0.26205,0.103351 l 0.073,0.161029 0.0125,-0.358427 c 0.008,-0.21738 -0.006,-0.380958 -0.035,-0.415683 -0.0607,-0.07308 0.0681,-0.149128 0.2525,-0.149128 0.14512,0 0.39259,0.18376 0.39259,0.291524 0,0.05381 -0.0115,0.05773 -0.0515,0.01765 -0.0283,-0.02834 -0.089,-0.05153 -0.13474,-0.05153 -0.0752,0 -0.0806,0.02185 -0.0564,0.228134 0.0147,0.125474 0.0487,0.290924 0.0755,0.367666 l 0.0486,0.139534 0.10097,-0.09485 c 0.0836,-0.07856 0.11224,-0.08549 0.16663,-0.04035 0.0726,0.06024 0.0908,0.301633 0.0227,0.301633 -0.0236,0 -0.0429,-0.05797 -0.0429,-0.128823 0,-0.153333 -0.0501,-0.164544 -0.14388,-0.03221 l -0.0685,0.09662 -0.0831,-0.09654 c -0.0471,-0.05471 -0.10689,-0.229445 -0.13796,-0.40325 -0.0527,-0.295223 -0.0514,-0.309498 0.0372,-0.381216 0.11448,-0.09271 0.0826,-0.128084 -0.11547,-0.128206 l -0.15387,-8.6e-5 0.0116,0.418772 c 0.013,0.469165 -0.0226,0.579066 -0.16,0.493918 -0.13959,-0.08651 -0.18517,-0.06569 -0.1645,0.07515 0.0203,0.138267 -0.0307,0.177988 -0.0689,0.05368 -0.0127,-0.04133 -0.0159,0.161568 -0.007,0.450885 0.009,0.289317 3.2e-4,0.52603 -0.0189,0.52603 -0.0191,0 -0.0486,-0.202475 -0.0654,-0.449943 z m 0.24213,-0.795354 c 0.0243,0 0.0222,-0.03494 -0.005,-0.08588 -0.0625,-0.116814 -0.11461,-0.107888 -0.13981,0.02396 -0.016,0.08347 -0.006,0.104091 0.0414,0.08588 0.0344,-0.01318 0.0809,-0.02396 0.10339,-0.02396 z m 1.02557,0.567791 c 0,-0.427102 -0.0148,-0.56983 -0.0669,-0.64412 -0.0859,-0.122617 -0.20777,-0.12208 -0.26721,0.0011 l -0.0466,0.09662 -0.003,-0.09511 c -0.003,-0.113801 0.13629,-0.200137 0.26029,-0.160782 0.15295,0.04854 0.20916,0.272751 0.20916,0.834218 0,0.315822 -0.0167,0.516675 -0.0429,0.516675 -0.0264,0 -0.0429,-0.211523 -0.0429,-0.548684 z m -1.08785,0.477113 c -0.0432,-0.04322 -0.0331,-0.327471 0.0143,-0.400785 0.0295,-0.04572 0.0418,0.0072 0.0423,0.182501 6.5e-4,0.249333 -0.005,0.27015 -0.0566,0.218284 z m 0.97233,-0.293431 c 3.3e-4,-0.141707 0.008,-0.194501 0.0178,-0.11732 0.01,0.07718 0.009,0.193123 -4.9e-4,0.257648 -0.01,0.06453 -0.0176,0.0013 -0.0174,-0.140328 z m -0.14798,-0.04509 c -0.003,-0.116906 -0.0142,-0.16908 -0.0245,-0.11594 -0.0102,0.05314 -0.0366,0.09662 -0.0586,0.09662 -0.022,0 -0.0402,-0.04348 -0.0405,-0.09662 -3.2e-4,-0.05314 -0.0124,-0.144928 -0.0268,-0.203971 -0.0243,-0.09933 -0.0217,-0.101511 0.0344,-0.02917 0.0334,0.043 0.0889,0.07198 0.12345,0.06441 0.0471,-0.01032 0.0661,0.03872 0.0761,0.196193 0.007,0.11548 -0.007,0.230455 -0.0322,0.255501 -0.0321,0.03209 -0.0473,-0.01723 -0.0514,-0.167021 z m -0.59533,-0.212558 c 0,-0.08266 0.0193,-0.150294 0.0429,-0.150294 0.0236,0 0.043,0.06763 0.043,0.150294 0,0.08266 -0.0193,0.150294 -0.043,0.150294 -0.0236,0 -0.0429,-0.06763 -0.0429,-0.150294 z m -0.25764,0.02147 c 0,-0.02362 0.0193,-0.04294 0.0429,-0.04294 0.0236,0 0.0429,0.01932 0.0429,0.04294 0,0.02362 -0.0193,0.04294 -0.0429,0.04294 -0.0236,0 -0.0429,-0.01932 -0.0429,-0.04294 z m 4.5846,-1.44159 -0.0114,-1.312766 -1.14643,1.310155 -1.14643,1.310154 1.14643,1.312608 1.14643,1.312608 0.0114,-1.309997 c 0.006,-0.720498 0.006,-1.900741 0,-2.622762 z m -0.80577,2.558064 c 0,-0.143139 0.0191,-0.257648 0.0429,-0.257648 0.0239,0 0.0429,0.114509 0.0429,0.257648 0,0.143137 -0.0191,0.257648 -0.0429,0.257648 -0.0239,0 -0.0429,-0.114511 -0.0429,-0.257648 z m -0.22607,0.103147 c -0.0149,-0.01491 -3.2e-4,-0.06837 0.0323,-0.118806 0.087,-0.134247 0.11015,-0.714344 0.0285,-0.714344 -0.02,0 -0.0668,0.07729 -0.1039,0.171765 -0.0371,0.09447 -0.089,0.171766 -0.11538,0.171766 -0.0341,0 -0.035,-0.02401 -0.003,-0.08306 0.0244,-0.04568 0.0444,-0.211074 0.0444,-0.367535 0,-0.178716 0.016,-0.27461 0.0429,-0.257937 0.0236,0.01459 0.0429,0.09303 0.0429,0.1743 0,0.118659 0.0168,0.14776 0.0851,0.14776 0.0858,0 0.11214,0.05872 0.14436,0.322059 0.0262,0.214234 -0.12216,0.629713 -0.19784,0.554032 z m 0.42363,-0.16756 c -0.0416,-0.09447 -0.0811,-0.268384 -0.0878,-0.386472 -0.007,-0.118087 -0.0265,-0.248359 -0.044,-0.289492 -0.0219,-0.05154 -0.008,-0.08373 0.0433,-0.103577 0.0535,-0.02051 0.10996,0.01333 0.19654,0.117728 0.17613,0.212389 0.14818,0.263706 -0.033,0.06063 l -0.15328,-0.171764 0.0347,0.150294 c 0.0191,0.08266 0.0315,0.205575 0.0276,0.273138 -0.004,0.06756 0.0225,0.17997 0.0586,0.249795 0.0361,0.06982 0.0583,0.159471 0.0494,0.199216 -0.0109,0.04844 -0.0412,0.01563 -0.0919,-0.0995 z m -0.59318,-0.08788 c -0.0157,-0.01574 -0.01,-0.05072 0.0132,-0.07773 0.023,-0.02701 0.067,-0.08558 0.0978,-0.130157 0.0308,-0.04458 0.0772,-0.07357 0.10325,-0.06441 0.0274,0.0097 -0.002,0.07636 -0.0692,0.158782 -0.064,0.07818 -0.12932,0.129257 -0.14507,0.113513 z m 0.69184,-0.140772 c -0.02,-0.18606 0.0167,-0.278031 0.0629,-0.157574 0.0135,0.03529 0.0627,0.06417 0.10932,0.06417 0.0466,0 0.0966,0.01932 0.11124,0.04294 0.0146,0.02362 -0.005,0.04294 -0.0433,0.04294 -0.0527,0 -0.0625,0.0237 -0.0398,0.09662 0.0294,0.09453 0.0282,0.09492 -0.0577,0.01823 -0.085,-0.07589 -0.0884,-0.07589 -0.10525,0 -0.01,0.04311 -0.0264,-0.0052 -0.0374,-0.107322 z m -0.91171,-0.122036 c -0.0457,-0.0457 -0.0331,-1.242359 0.0144,-1.367294 0.0577,-0.151703 0.17383,-0.124676 0.26143,0.06083 l 0.0686,0.145263 0.0282,-0.205496 c 0.0413,-0.301675 0.0347,-0.441747 -0.0255,-0.538931 -0.0749,-0.120929 0.0218,-0.178879 0.25939,-0.155341 0.20714,0.02052 0.35253,0.127074 0.35253,0.258362 0,0.0683 -0.0115,0.07636 -0.0515,0.03628 -0.0974,-0.09737 -0.2064,-0.06159 -0.20282,0.06656 0.003,0.124677 0.11331,0.49767 0.12102,0.411009 0.007,-0.07343 0.12906,-0.185568 0.20276,-0.185568 0.0348,0 0.11073,0.04743 0.16869,0.105401 0.10255,0.102548 0.10521,0.121436 0.098,0.697796 l -0.007,0.592396 -0.0263,-0.558238 c -0.0153,-0.324864 -0.0494,-0.599717 -0.0814,-0.657461 -0.0714,-0.128571 -0.20528,-0.108851 -0.29743,0.04381 -0.0883,0.146233 -0.0295,0.217196 0.0703,0.08488 0.10951,-0.145178 0.22235,-0.08495 0.21489,0.114683 -0.004,0.117319 -0.0107,0.129592 -0.0251,0.04908 -0.0302,-0.168535 -0.086,-0.195913 -0.17508,-0.08592 -0.1067,0.131774 -0.16622,0.08613 -0.24077,-0.184645 -0.11933,-0.433451 -0.12383,-0.535659 -0.0259,-0.588093 0.12209,-0.06534 0.068,-0.128988 -0.10958,-0.128988 h -0.14776 v 0.472355 c 0,0.43894 -0.006,0.472354 -0.0833,0.472354 -0.0458,0 -0.0953,-0.01932 -0.10989,-0.04294 -0.0537,-0.08686 -0.10739,-0.03912 -0.10872,0.09662 -0.001,0.134389 -0.004,0.136378 -0.0678,0.05368 -0.0606,-0.07831 -0.0638,-0.03949 -0.0361,0.440149 0.0292,0.505952 0.0251,0.560385 -0.0379,0.497403 z m 0.22902,-1.259363 c 0,-0.0525 -0.11258,-0.131003 -0.14351,-0.100073 -0.0155,0.01555 -0.0283,0.06187 -0.0283,0.102961 0,0.05356 0.0243,0.06835 0.0859,0.05225 0.0472,-0.01235 0.0859,-0.03716 0.0859,-0.05513 z m -0.0859,0.877514 c 0,-0.148206 0.0163,-0.22865 0.0429,-0.212172 0.0236,0.01459 0.0429,0.122017 0.0429,0.238711 0,0.116695 -0.0193,0.212172 -0.0429,0.212172 -0.0236,0 -0.0429,-0.10742 -0.0429,-0.238711 z m 0.94471,-0.08335 c 0,-0.129898 0.0193,-0.236177 0.0429,-0.236177 0.0236,0 0.0429,0.106279 0.0429,0.236177 0,0.129897 -0.0193,0.236177 -0.0429,0.236177 -0.0236,0 -0.0429,-0.10628 -0.0429,-0.236177 z m -0.13311,-0.03221 c -0.004,-0.151825 -0.01,-0.164457 -0.0368,-0.07515 l -0.0325,0.107354 -0.0276,-0.11809 c -0.0652,-0.278546 -0.0698,-0.332795 -0.0285,-0.332795 0.0241,0 0.0438,0.03029 0.0438,0.06731 0,0.04776 0.0249,0.05939 0.0859,0.04005 0.0794,-0.02521 0.0859,-0.0077 0.0859,0.233284 0,0.292295 -0.0834,0.364519 -0.0902,0.07804 z m -0.54313,-0.225442 c 4.9e-4,-0.09447 0.009,-0.128063 0.0195,-0.07465 0.0103,0.05341 0.01,0.13071 -8.2e-4,0.171765 -0.0107,0.04106 -0.0191,-0.0026 -0.0187,-0.09712 z m -0.26847,0.02147 c 0,-0.02362 0.0205,-0.04294 0.0455,-0.04294 0.025,0 0.0335,0.01932 0.0189,0.04294 -0.0146,0.02362 -0.0351,0.04294 -0.0455,0.04294 -0.0104,0 -0.0189,-0.01932 -0.0189,-0.04294 z m 0.94471,-0.08588 c 0,-0.02362 0.0193,-0.04294 0.0429,-0.04294 0.0236,0 0.0429,0.01932 0.0429,0.04294 0,0.02362 -0.0193,0.04294 -0.0429,0.04294 -0.0236,0 -0.0429,-0.01933 -0.0429,-0.04294 z m -1.89951,-1.586184 -0.0114,-1.226471 h -0.17176 -0.17177 l -0.0114,1.194767 c -0.0111,1.159825 -0.009,1.198524 0.0801,1.323284 l 0.0915,0.128517 0.10305,-0.09681 0.10306,-0.09681 z m -0.95136,-1.186689 c -0.0103,-0.02675 -0.0928,-0.04544 -0.18346,-0.04153 l -0.1648,0.0071 -0.0111,0.662915 -0.0111,0.662915 0.18288,0.212695 0.18288,0.212694 0.0117,-0.834077 c 0.006,-0.458743 0.003,-0.855963 -0.007,-0.882712 z m 1.73243,1.516841 0.1729,-0.182501 -0.0103,-0.68706 -0.0103,-0.687062 h -0.17176 -0.17177 l -0.0116,0.869562 c -0.006,0.478258 -0.002,0.869561 0.009,0.869561 0.0114,0 0.0986,-0.08213 0.19371,-0.1825 z m 1.33227,-1.54785 c 4.9e-4,-0.01879 -0.12956,-0.02845 -0.28898,-0.02147 l -0.28986,0.01269 -0.007,0.343531 -0.007,0.343531 0.29556,-0.322061 c 0.16255,-0.177132 0.29593,-0.337435 0.29641,-0.356228 z m -4.00152,0.302551 -0.0126,-0.311324 -0.26839,-0.0063 c -0.14761,-0.0035 -0.26838,0.0094 -0.26838,0.02866 0,0.05014 0.48144,0.600269 0.52532,0.600269 0.0202,0 0.031,-0.140096 0.0241,-0.311325 z m 6.42858,2.754522 c 0.38016,-0.103844 0.62264,-0.419843 0.62264,-0.811427 0,-0.627802 -0.64694,-1.028568 -1.20671,-0.747534 -0.23725,0.119107 -0.46752,0.487299 -0.46752,0.747534 0,0.156752 0.10063,0.400817 0.22246,0.53958 0.14701,0.167438 0.25112,0.233144 0.44265,0.279365 0.18463,0.04456 0.1967,0.04432 0.38648,-0.0075 z m -0.0684,-0.285397 c 0.0709,-0.08857 0.15877,-0.276213 0.19527,-0.416995 0.0628,-0.242459 0.0619,-0.264995 -0.0183,-0.427071 -0.0912,-0.184415 -0.0756,-0.273179 0.0233,-0.13278 0.0333,0.0472 0.10898,0.139288 0.16825,0.204646 0.12566,0.13857 0.14511,0.3929 0.0449,0.586718 -0.0879,0.170047 -0.31011,0.346512 -0.43628,0.346512 h -0.10608 z m 4.43161,-0.650024 c 0.0819,-0.06634 0.0991,-0.118943 0.0943,-0.289853 -0.0153,-0.555987 -0.005,-0.813506 0.0329,-0.851714 0.023,-0.02302 0.18149,-0.0438 0.35218,-0.0462 0.17068,-0.0024 0.39245,-0.01995 0.49282,-0.03901 0.16223,-0.03081 0.18257,-0.02568 0.18313,0.04614 6.5e-4,0.08926 0.10394,0.414786 0.17782,0.560635 0.0381,0.07517 0.0299,0.12149 -0.0419,0.237708 -0.076,0.123019 -0.0814,0.15998 -0.0365,0.250168 0.0495,0.0992 0.0742,0.105823 0.39502,0.105823 h 0.34226 l -0.01,-0.227608 c -0.005,-0.128206 0.0368,-0.418883 0.0966,-0.66559 0.0584,-0.240891 0.10613,-0.521069 0.10617,-0.622616 2e-5,-0.101548 0.0313,-0.245118 0.0696,-0.319043 l 0.0695,-0.134409 0.0577,0.104335 c 0.0318,0.05739 0.0803,0.215447 0.10785,0.351248 0.0745,0.367212 0.14263,0.312885 0.11164,-0.08904 -0.0374,-0.484524 -0.24894,-1.052606 -0.47224,-1.267969 -0.30924,-0.298245 -0.49598,-0.40715 -0.81702,-0.476492 -0.33149,-0.0716 -1.01028,-0.120286 -1.76936,-0.126919 l -0.47384,-0.0041 -0.21322,0.152779 c -0.29794,0.213483 -0.51268,0.626943 -0.47077,0.906408 0.0228,0.152213 0.0557,0.209368 0.15403,0.267426 0.11383,0.06724 0.13353,0.06787 0.22044,0.007 0.16095,-0.112733 0.17792,-0.07462 0.0378,0.08495 -0.0733,0.08348 -0.13328,0.17366 -0.13328,0.200392 0,0.02673 -0.0145,0.03398 -0.0322,0.0161 -0.0177,-0.01788 -0.0322,-0.07349 -0.0322,-0.12357 0,-0.06987 -0.05,-0.109876 -0.21471,-0.171898 -0.11808,-0.04446 -0.28884,-0.119219 -0.37946,-0.166133 -0.0906,-0.04691 -0.17354,-0.07652 -0.18427,-0.06579 -0.0501,0.05008 0.24152,0.311589 0.45049,0.404003 0.16149,0.07142 0.21952,0.1169 0.1886,0.147819 -0.0309,0.03092 -0.0758,0.02797 -0.14589,-0.0096 -0.0557,-0.02984 -0.21623,-0.05111 -0.35678,-0.04727 -0.43832,0.01198 -0.79651,-0.228558 -0.79651,-0.534878 0,-0.121646 -0.0154,-0.144504 -0.0976,-0.144504 -0.094,0 -0.41773,0.229762 -0.41773,0.296513 0,0.07423 0.6539,0.694379 0.82327,0.780789 0.10291,0.0525 0.29954,0.102852 0.44825,0.114789 0.23792,0.0191 0.29059,0.0073 0.51656,-0.115423 l 0.25163,-0.136691 0.28986,0.155534 c 0.21726,0.11658 0.28985,0.178246 0.28985,0.246228 0,0.04988 0.023,0.15416 0.051,0.231726 0.0436,0.120718 0.0362,0.188314 -0.052,0.469372 -0.11729,0.374 -0.11853,0.371197 0.23716,0.537384 0.21973,0.102666 0.37267,0.102999 0.49852,0.0011 z m -0.54356,-0.182209 c -0.13628,-0.06621 -0.20727,-0.202338 -0.14478,-0.277633 0.0431,-0.05196 0.0777,-0.03319 0.21718,0.117863 0.0912,0.09882 0.16587,0.18612 0.16587,0.193999 0,0.02915 -0.1531,0.0072 -0.23827,-0.03423 z m 2.00142,-0.04806 c -0.0266,-0.06828 -0.0199,-0.110603 0.0229,-0.144295 0.0896,-0.07062 0.0794,-0.116343 -0.16066,-0.725268 -0.22486,-0.570264 -0.29981,-0.880296 -0.2128,-0.880296 0.0261,0 0.0474,0.04559 0.0474,0.101305 0,0.05572 0.0663,0.244701 0.14723,0.41996 0.16276,0.352276 0.33889,0.967612 0.29656,1.036097 -0.0149,0.02411 -0.0255,0.09903 -0.0236,0.166479 0.004,0.146373 -0.0643,0.161583 -0.11704,0.02602 z m -2.0208,-0.584451 c 0,-0.09117 -0.0123,-0.255425 -0.0273,-0.365 -0.0391,-0.285261 0.0412,-0.250377 0.1347,0.05854 0.062,0.204932 0.068,0.279752 0.0292,0.365002 -0.072,0.158107 -0.13658,0.130442 -0.13658,-0.05854 z m -0.1182,-0.875555 c -0.097,-0.121563 -0.18011,-0.331701 -0.15602,-0.394486 0.0422,-0.109911 0.10267,-0.07719 0.17357,0.0939 0.0367,0.08857 0.0739,0.168599 0.0826,0.177848 0.0314,0.0332 0.18873,-0.192127 0.2584,-0.369984 0.0635,-0.162199 0.0643,-0.196293 0.008,-0.32206 -0.0349,-0.07736 -0.087,-0.20119 -0.11588,-0.275174 -0.0289,-0.07398 -0.10593,-0.185695 -0.17122,-0.248247 -0.13828,-0.132481 -0.24391,-0.113786 -0.31542,0.05582 -0.0472,0.111941 -0.0474,0.111975 -0.0644,0.01313 -0.009,-0.05451 0.0145,-0.147389 0.0532,-0.206408 0.0574,-0.08757 0.0993,-0.104887 0.22762,-0.09414 0.14897,0.01248 0.16807,0.03251 0.36052,0.378175 0.27692,0.497408 0.2756,0.610149 -0.0114,0.970826 -0.22894,0.287711 -0.25947,0.308189 -0.3292,0.220794 z m -0.71807,-0.975167 c -0.0283,-0.04582 0.0647,-0.216454 0.11795,-0.216454 0.0634,0 0.0841,0.129629 0.0308,0.193783 -0.0611,0.07366 -0.11242,0.08147 -0.14876,0.02267 z m -2.55194,1.632574 c 0.25877,-0.171408 0.37086,-0.33614 0.44623,-0.65585 0.10203,-0.432734 0.082,-0.772962 -0.0833,-1.413354 -0.2572,-0.996816 -0.36715,-1.621072 -0.3668,-2.082579 4.9e-4,-0.723593 0.0714,-1.004591 0.36576,-1.45103 l 0.0826,-0.125245 -0.20641,0.02829 c -0.29598,0.04057 -0.43609,0.141063 -0.58426,0.419066 -0.15248,0.286072 -0.15705,0.311219 -0.0505,0.277388 0.0463,-0.01469 0.1207,0.0077 0.17689,0.05318 l 0.097,0.07854 -0.0987,0.190838 c -0.0792,0.153266 -0.1,0.266923 -0.1053,0.577308 -0.005,0.303511 -0.0267,0.425433 -0.10008,0.567971 l -0.0934,0.181499 0.12394,-0.02479 c 0.14196,-0.02839 0.3062,0.0436 0.3062,0.134223 0,0.03381 -0.0676,0.129102 -0.1503,0.211763 -0.14722,0.147224 -0.15032,0.157565 -0.15182,0.505993 -9.7e-4,0.215827 -0.0243,0.39692 -0.0596,0.46053 -0.052,0.0938 -0.0469,0.121769 0.0484,0.265668 0.14271,0.215648 0.19184,0.44826 0.13762,0.65162 -0.0899,0.337322 -0.33513,0.427475 -0.5576,0.20501 -0.10741,-0.107409 -0.12549,-0.158529 -0.12528,-0.354267 3.2e-4,-0.295453 0.0615,-0.509791 0.21448,-0.750982 0.11327,-0.17861 0.12121,-0.217367 0.0989,-0.483209 -0.0154,-0.1834 -0.006,-0.323192 0.0258,-0.382525 0.0275,-0.05143 0.0323,-0.0935 0.0106,-0.0935 -0.0217,0 -0.12124,0.125602 -0.22126,0.279118 -0.16992,0.260805 -0.25765,0.340453 -0.25765,0.233918 0,-0.201427 0.161,-0.678666 0.31307,-0.927994 0.17182,-0.281714 0.17949,-0.309421 0.18981,-0.685814 0.006,-0.215731 0.03,-0.442783 0.0535,-0.50456 0.0716,-0.188424 -0.0485,-0.13276 -0.17954,0.08321 -0.10983,0.180967 -0.22322,0.272966 -0.27392,0.222257 -0.0122,-0.01222 0.02,-0.161452 0.0717,-0.33161 0.0835,-0.27491 0.0877,-0.328286 0.0379,-0.479129 -0.0308,-0.09336 -0.11847,-0.22458 -0.19479,-0.291591 -0.12854,-0.11286 -0.55816,-0.292332 -0.59989,-0.250601 -0.0101,0.01008 0.0475,0.14918 0.128,0.309124 0.32769,0.651305 0.35065,1.144541 0.1311,2.816025 -0.18105,1.378413 -0.12078,2.005159 0.2287,2.377924 0.17384,0.18543 0.42026,0.282411 0.72033,0.283496 0.21793,8.11e-4 0.2925,-0.01991 0.45166,-0.12533 z m -0.70553,-0.117062 c -0.068,-0.06796 -0.0161,-0.100196 0.16132,-0.100196 0.2269,0 0.4078,-0.131785 0.55268,-0.402609 0.0816,-0.152492 0.0941,-0.239744 0.0901,-0.627983 -0.003,-0.300226 -0.0353,-0.577563 -0.0966,-0.830011 -0.16902,-0.696415 -0.062,-0.624448 0.14591,0.09808 0.25325,0.880285 0.0919,1.623905 -0.39758,1.832474 -0.14492,0.06175 -0.40695,0.07914 -0.45584,0.03025 z m -4.0007,-1.516549 c 0.68967,-0.06318 0.86823,-0.16751 0.51201,-0.299149 -0.2416,-0.08928 -1.94102,-0.08914 -2.18672,1.62e-4 -0.0945,0.03435 -0.17176,0.08996 -0.17176,0.123583 0,0.157728 1.00116,0.252819 1.84647,0.17538 z m -1.08845,-0.482351 c 0.60213,-0.05536 1.39285,0.0017 1.76533,0.127491 l 0.23908,0.08071 0.0968,-0.206688 c 0.0533,-0.113677 0.0865,-0.217025 0.0738,-0.229661 -0.0584,-0.05838 -0.64181,-0.192797 -1.03635,-0.238762 -0.45883,-0.05345 -1.20817,-0.03227 -1.6176,0.04574 -0.39436,0.07514 -0.68712,0.172282 -0.68612,0.227679 4.9e-4,0.02886 0.0372,0.132275 0.0815,0.229804 l 0.0805,0.177327 0.24714,-0.08343 c 0.13592,-0.04589 0.47607,-0.104484 0.75589,-0.130211 z m -0.54332,-0.507063 c 0.60104,-0.135086 1.49536,-0.134953 2.10413,3.25e-4 0.62358,0.13856 0.69272,0.14623 0.71988,0.07987 0.013,-0.03171 0.0925,-0.207417 0.17681,-0.390455 0.11631,-0.252656 0.13795,-0.332795 0.0899,-0.332795 -0.0348,0 -0.0633,0.02768 -0.0633,0.06152 0,0.03383 -0.0366,0.07312 -0.0813,0.08731 -0.0447,0.01418 -0.10538,0.08403 -0.13487,0.155213 -0.11759,0.283882 -0.47103,0.317979 -0.66466,0.06412 -0.13326,-0.174694 -0.1332,-0.196382 4.9e-4,-0.196382 0.059,0 0.10735,-0.01932 0.10735,-0.04294 0,-0.02362 -0.0495,-0.04294 -0.10999,-0.04294 -0.10528,0 -0.1088,-0.0079 -0.0822,-0.184961 0.0204,-0.135827 0.0112,-0.198708 -0.0346,-0.236707 -0.0493,-0.04094 -0.0735,-0.03824 -0.11604,0.01295 -0.0484,0.05834 -0.0476,0.121858 0.004,0.322836 0.0113,0.04362 -0.0215,0.0688 -0.10148,0.078 -0.14347,0.01651 -0.15821,0.09377 -0.0179,0.09377 0.15824,0 0.163,0.04381 0.018,0.165805 -0.18138,0.152627 -0.43399,0.155046 -0.62212,0.006 -0.16443,-0.130304 -0.17735,-0.214705 -0.0329,-0.214705 0.059,0 0.10735,-0.01932 0.10735,-0.04294 0,-0.02362 -0.0483,-0.04294 -0.10735,-0.04294 -0.11658,0 -0.13236,-0.04482 -0.062,-0.17621 0.0609,-0.113769 0.0111,-0.253203 -0.0903,-0.253203 -0.0979,0 -0.16277,0.195855 -0.0892,0.269381 0.0816,0.08159 0.0539,0.160032 -0.0564,0.160032 -0.0576,0 -0.11676,0.01932 -0.13136,0.04294 -0.0155,0.02505 0.0282,0.04294 0.10482,0.04294 0.17481,0 0.16517,0.07933 -0.0274,0.225441 -0.20763,0.157535 -0.385,0.154321 -0.5927,-0.01073 -0.15751,-0.125173 -0.15896,-0.128824 -0.0514,-0.128824 0.0609,0 0.12267,-0.01932 0.13727,-0.04294 0.0155,-0.02505 -0.0282,-0.04294 -0.10482,-0.04294 -0.14869,0 -0.15065,-0.005 -0.0796,-0.201345 0.0446,-0.123382 0.0413,-0.153297 -0.0241,-0.217757 -0.0721,-0.07103 -0.0789,-0.07054 -0.13856,0.0099 -0.0345,0.04656 -0.0502,0.114191 -0.0348,0.150296 0.0154,0.0361 0.0374,0.109121 0.0489,0.16226 0.0183,0.08431 0.004,0.09662 -0.11541,0.09662 -0.08,0 -0.12538,0.01776 -0.10982,0.04294 0.0146,0.02362 0.075,0.04294 0.13425,0.04294 0.0913,0 0.10348,0.0147 0.0799,0.09662 -0.0426,0.147795 -0.22398,0.289853 -0.37012,0.289853 -0.15316,0 -0.38077,-0.203379 -0.38077,-0.340227 0,-0.05298 -0.0278,-0.08919 -0.0684,-0.08919 -0.0376,0 -0.0785,-0.03865 -0.0909,-0.08588 -0.0123,-0.04724 -0.0411,-0.08588 -0.064,-0.08588 -0.0228,0 -0.0351,0.01537 -0.0272,0.03414 0.008,0.01878 0.0819,0.193793 0.16461,0.388927 l 0.1503,0.354788 0.15029,-0.01914 c 0.0827,-0.01052 0.34353,-0.06257 0.57971,-0.11565 z m 10.35138,-0.519106 c 0.0613,-0.118611 0.077,-0.12396 0.36248,-0.12396 0.28563,0 0.30113,0.0053 0.36261,0.124189 0.0516,0.09982 0.0982,0.12743 0.23728,0.140694 0.0952,0.0091 0.17305,0.0017 0.17305,-0.01646 0,-0.01813 -0.14009,-0.31416 -0.31132,-0.657846 l -0.31132,-0.624885 -0.14535,0.01259 c -0.14038,0.01216 -0.15628,0.03349 -0.46482,0.62343 -0.17571,0.335961 -0.30954,0.626903 -0.29741,0.646537 0.0121,0.01963 0.0915,0.02759 0.17638,0.01768 0.11717,-0.01368 0.16974,-0.04785 0.21842,-0.141977 z m 0.19072,-0.401622 c 0,-0.04656 0.14704,-0.323517 0.17176,-0.323517 0.0247,0 0.17177,0.276955 0.17177,0.323517 0,0.011 -0.0773,0.02001 -0.17177,0.02001 -0.0945,0 -0.17176,-0.009 -0.17176,-0.02001 z m -4.61767,-2.059256 c 0.17021,-0.07112 0.28059,-0.257163 0.28059,-0.4729284 0,-0.354475 -0.46858,-0.583628 -0.74594,-0.364789 -0.28658,0.226122 -0.28113,0.6035954 0.0116,0.8005574 0.16964,0.114157 0.25314,0.120996 0.45379,0.03716 z m -0.077,-0.2983664 c 0.0134,-0.08269 0.004,-0.20957 -0.0215,-0.28195 -0.0576,-0.165366 0.0191,-0.180352 0.0816,-0.01594 0.0553,0.145401 0.035,0.4089734 -0.0331,0.4313504 -0.0363,0.01191 -0.0443,-0.02735 -0.027,-0.1334644 z m -8.77817,15.0010424 c -0.05314,-0.02136 -0.09662,-0.05599 -0.09662,-0.07695 0,-0.02096 -0.117655,-0.166513 -0.261452,-0.323443 -0.234996,-0.256457 -0.251074,-0.28533 -0.158883,-0.28533 0.05641,0 0.124764,0.0222 0.151893,0.04932 0.06547,0.06547 0.155189,0.0045 0.812962,-0.552241 0.59083,-0.500098 0.64118,-0.562581 0.55019,-0.682772 -0.0866,-0.114313 -0.0789,-0.136412 0.0393,-0.113818 0.0633,0.01209 0.2149,0.153582 0.3907,0.364556 l 0.2873,0.344791 -0.19843,-0.02976 -0.19844,-0.02976 -0.60094,0.500816 c -0.33052,0.275447 -0.61919,0.534896 -0.64148,0.576553 -0.0281,0.05244 -0.0216,0.100678 0.0209,0.156817 0.10898,0.14395 0.0813,0.172849 -0.0969,0.101212 z m 17.26423,-0.74644 c 0.0136,-0.08378 0.002,-0.17386 -0.0266,-0.210221 -0.0277,-0.03499 -0.33855,-0.288272 -0.69077,-0.562841 l -0.64038,-0.499219 -0.10589,0.09753 c -0.10732,0.09885 -0.22364,0.324417 -0.22364,0.433686 0,0.03289 0.0451,0.126298 0.10028,0.207574 0.10484,0.154478 0.18555,0.439829 0.11743,0.415161 -0.0215,-0.0078 -0.16515,-0.135464 -0.31913,-0.28369 l -0.27996,-0.269506 0.3526,-0.439026 c 0.19393,-0.241464 0.41784,-0.530202 0.49758,-0.641637 0.16486,-0.230393 0.23685,-0.227728 0.19714,0.0073 l -0.0272,0.16088 0.58317,0.456883 c 0.80831,0.633276 0.76002,0.606103 0.89225,0.502091 0.10911,-0.08582 0.10911,-0.08582 0.13163,3.25e-4 0.0157,0.06007 -0.0357,0.154036 -0.17009,0.310642 -0.10594,0.123487 -0.22435,0.277661 -0.26313,0.34261 -0.0964,0.161433 -0.15402,0.148324 -0.12532,-0.02851 z M 24.629605,23.397884 c -0.457701,-0.105231 -0.657808,-0.286258 -0.917525,-0.830034 -0.107163,-0.224368 -0.195766,-0.422828 -0.196895,-0.44102 -0.0037,-0.05875 0.569463,-0.301314 0.644175,-0.272644 0.06038,0.02317 0.04738,0.05419 -0.08338,0.198916 -0.12415,0.137419 -0.154909,0.205969 -0.154909,0.34524 0,0.311412 0.240581,0.610602 0.535475,0.665924 0.325797,0.06112 0.899358,-0.283007 1.06959,-0.641732 0.1402,-0.295463 0.0668,-0.651107 -0.173321,-0.840002 -0.09536,-0.07501 -0.166047,-0.08941 -0.399493,-0.08139 -0.438909,0.01508 -0.448863,-0.03656 -0.04375,-0.226985 0.379083,-0.178186 0.4715,-0.199529 0.4715,-0.108892 0,0.03158 0.07465,0.162015 0.165874,0.289854 0.46228,0.647742 0.50827,1.11917 0.15,1.537726 -0.23323,0.272473 -0.765457,0.474444 -1.067348,0.405036 z m 18.400351,-1.172823 c -0.90937,-0.11755 -1.07156,-0.115814 -1.0749,0.01151 -8.1e-4,0.02869 -0.0286,0.01623 -0.0619,-0.0277 -0.054,-0.07122 -0.0396,-0.121321 0.1328,-0.462539 0.19773,-0.391448 0.27396,-0.44389 0.27396,-0.188472 0,0.155455 -0.004,0.153597 0.40845,0.215334 l 0.17228,0.02582 0.14177,-0.287501 0.14177,-0.287501 -0.18343,-0.186899 c -0.20772,-0.211654 -0.26213,-0.225982 -0.35494,-0.09347 l -0.0654,0.09343 -0.0377,-0.101923 c -0.0297,-0.08021 -0.005,-0.163988 0.11668,-0.39328 0.0849,-0.160248 0.16851,-0.291689 0.18577,-0.292095 0.0173,-3.25e-4 0.0414,0.04757 0.0537,0.106618 0.0123,0.05904 0.0316,0.150832 0.0431,0.203971 0.0114,0.05314 0.31125,0.425118 0.66627,0.826621 0.51039,0.57722 0.64309,0.752469 0.63406,0.837354 -0.0154,0.144963 -0.0763,0.145002 -1.1923,8.12e-4 z m 0.81589,-0.313306 c 0,-0.0066 -0.12351,-0.134383 -0.27446,-0.283991 l -0.27445,-0.272012 -0.11202,0.191144 c -0.0616,0.105129 -0.11202,0.211341 -0.11202,0.236027 0,0.02469 0.13044,0.06384 0.28986,0.08701 0.3166,0.04602 0.48309,0.06043 0.48309,0.04182 z M 23.165197,21.375572 c -0.02604,-0.01735 -0.08183,-0.137829 -0.123975,-0.267727 -0.04215,-0.129897 -0.112629,-0.307869 -0.156627,-0.395496 -0.044,-0.08763 -0.08,-0.16975 -0.08,-0.1825 0,-0.05397 0.10897,-0.01646 0.199627,0.06871 l 0.09781,0.09189 0.717799,-0.274387 c 0.813979,-0.311155 0.929794,-0.380715 0.891027,-0.535176 -0.01509,-0.06014 -0.0073,-0.104213 0.01837,-0.104213 0.0571,0 0.179487,0.12166 0.179487,0.178414 0,0.0239 0.05797,0.188231 0.128824,0.365178 0.07085,0.176949 0.128824,0.329926 0.128824,0.339949 0,0.04999 -0.113143,0.0076 -0.20167,-0.07558 l -0.09985,-0.09381 -0.761744,0.288172 c -0.418956,0.158496 -0.78548,0.319773 -0.814492,0.358396 -0.02901,0.03862 -0.04141,0.115409 -0.02755,0.170634 0.02543,0.101337 -0.0089,0.125513 -0.09587,0.06755 z m 21.209919,-1.186966 c -0.1561,-0.07047 -0.25036,-0.200108 -0.29254,-0.402341 l -0.0294,-0.140696 -0.0845,0.107454 c -0.0897,0.113979 -0.2542,0.170171 -0.63816,0.217939 -0.14187,0.01765 -0.27295,0.06317 -0.32826,0.114007 -0.12945,0.118952 -0.15775,0.04208 -0.0955,-0.259342 l 0.0524,-0.253693 0.34765,-0.01825 c 0.44619,-0.02342 0.66955,-0.124807 0.7386,-0.335258 l 0.0493,-0.150295 -0.17535,-0.05325 c -0.0964,-0.02929 -0.26579,-0.06525 -0.37633,-0.07991 -0.17834,-0.02366 -0.20903,-0.01524 -0.27238,0.07472 -0.0603,0.08568 -0.0777,0.09141 -0.11247,0.03697 -0.0545,-0.08546 -0.0529,-0.121326 0.0182,-0.41521 0.0333,-0.13771 0.0724,-0.303521 0.0867,-0.36847 0.0344,-0.155572 0.10602,-0.150503 0.13807,0.0098 0.0141,0.07032 0.0474,0.145141 0.0741,0.166261 0.0416,0.03295 1.53538,0.39389 1.62723,0.393189 0.0181,-1.28e-4 0.07,-0.06141 0.11549,-0.136163 l 0.0827,-0.135915 0.0282,0.112309 c 0.0155,0.06177 -10e-4,0.234042 -0.0371,0.382826 -0.0359,0.148785 -0.0778,0.338151 -0.093,0.420813 -0.0544,0.294653 -0.15486,0.547341 -0.25505,0.641471 -0.1271,0.119404 -0.38896,0.152131 -0.56855,0.07106 z m 0.51606,-0.474645 c 0.088,-0.06665 0.20964,-0.373322 0.16443,-0.414439 -0.0239,-0.02177 -0.73694,-0.209917 -0.79549,-0.209917 -0.01,0 -0.0303,0.06413 -0.045,0.142499 -0.0361,0.192503 0.0447,0.404428 0.18276,0.479445 0.14479,0.07865 0.39106,0.07986 0.49328,0.0024 z m -22.269077,0.06389 c -0.04133,-0.0584 -0.07545,-0.164676 -0.07582,-0.236178 -3.24e-4,-0.0715 -0.0279,-0.245787 -0.06119,-0.387298 -0.03328,-0.141512 -0.05057,-0.267116 -0.03842,-0.27912 0.01216,-0.01201 0.06457,0.03132 0.116478,0.09626 0.120396,0.150638 0.16002,0.150004 1.10667,-0.01775 0.838907,-0.148656 0.805928,-0.128561 0.719837,-0.438622 -0.06528,-0.235099 -0.213547,-0.370251 -0.40618,-0.370251 -0.08966,0 -0.201397,-0.03555 -0.262279,-0.08344 l -0.106069,-0.08343 0.142238,-0.02162 c 0.07823,-0.0119 0.262724,-0.03199 0.409984,-0.04467 0.310695,-0.02674 0.262934,-0.111187 0.399006,0.705511 0.04919,0.295221 0.106609,0.613538 0.127602,0.707367 0.05059,0.226112 0.01673,0.24574 -0.127405,0.07385 l -0.119087,-0.142025 -0.767755,0.135538 c -0.422267,0.07455 -0.809913,0.162191 -0.861434,0.194764 -0.05152,0.03258 -0.09983,0.112787 -0.107352,0.178252 l -0.01368,0.119027 z m 21.030507,-1.97333 -0.30059,-0.02462 -0.0117,-0.825627 c -0.0101,-0.715303 -0.003,-0.82236 0.052,-0.801183 0.035,0.01344 0.0767,0.06614 0.0926,0.117096 0.0159,0.05096 0.0504,0.106847 0.0768,0.124198 0.0263,0.01735 0.416,0.03184 0.86592,0.03221 0.85169,6.49e-4 0.92109,-0.01324 0.92109,-0.184953 0,-0.06851 0.011,-0.07346 0.0644,-0.02909 0.0727,0.06037 0.0828,0.373087 0.0364,1.131264 l -0.028,0.457563 h -0.28547 c -0.26288,0 -0.38854,-0.04444 -0.38854,-0.137412 0,-0.01889 0.0493,-0.03435 0.10949,-0.03435 0.1622,0 0.36084,-0.11791 0.40812,-0.242257 0.0428,-0.112612 0.0685,-0.433065 0.0369,-0.460443 -0.01,-0.0085 -0.18792,-0.02688 -0.39589,-0.04091 l -0.37811,-0.02549 0.0131,0.180577 c 0.0106,0.146336 0.0304,0.183048 0.10439,0.193601 0.0502,0.0072 0.13368,0.05815 0.18549,0.113306 l 0.0942,0.100284 -0.43837,-0.01638 c -0.40552,-0.01516 -0.55526,-0.05589 -0.55526,-0.151077 0,-0.02072 0.0662,-0.03768 0.14723,-0.03768 0.18041,0 0.28218,-0.09403 0.28218,-0.260715 v -0.125757 h -0.42859 c -0.42379,0 -0.42891,0.0013 -0.45613,0.109684 -0.0723,0.288134 0.0884,0.590382 0.34261,0.644341 0.13652,0.02898 0.28446,0.131607 0.28446,0.197339 0,0.01996 -0.0338,0.03287 -0.0751,0.0287 -0.0413,-0.0042 -0.21042,-0.01866 -0.37574,-0.03221 z m -21.31864,-0.236688 c -0.04479,-0.05439 -0.06509,-0.204713 -0.07094,-0.525334 -0.008,-0.438936 -0.0063,-0.447463 0.07348,-0.375231 0.04492,0.04065 0.08167,0.09783 0.08167,0.127075 0,0.09674 0.134798,0.108038 0.933661,0.07829 0.836569,-0.03115 0.912815,-0.05144 0.912815,-0.24292 0,-0.08199 0.0071,-0.08496 0.06472,-0.0273 0.04763,0.04763 0.06832,0.186383 0.07835,0.525566 0.01405,0.475005 -0.01917,0.55294 -0.134678,0.315981 -0.06435,-0.132007 0.0027,-0.124254 -0.995672,-0.115108 -0.424257,0.0039 -0.773514,0.02548 -0.802603,0.04962 -0.02832,0.02351 -0.05747,0.09287 -0.06478,0.154142 -0.01243,0.104205 -0.01734,0.106481 -0.07603,0.03521 z m 1.91852,-1.173214 c -0.04054,-0.0448 -0.07372,-0.110753 -0.07372,-0.146564 0,-0.09527 -0.07281,-0.149796 -0.923237,-0.691371 -0.561784,-0.35776 -0.783926,-0.522872 -0.813145,-0.604394 -0.02211,-0.06169 -0.02646,-0.125906 -0.0097,-0.142706 0.0168,-0.0168 0.487814,-0.102677 1.046699,-0.190839 0.884409,-0.139513 1.025193,-0.172281 1.085892,-0.252753 0.05972,-0.07918 0.07715,-0.08353 0.121306,-0.03033 0.04033,0.04859 0.0374,0.129467 -0.01344,0.371149 -0.03575,0.16996 -0.065,0.357674 -0.065,0.417143 0,0.149398 -0.097,0.108306 -0.14844,-0.06288 -0.03863,-0.128579 -0.05273,-0.136483 -0.236178,-0.132458 -0.371842,0.0082 -0.403777,0.03177 -0.461554,0.341184 -0.02846,0.152452 -0.04387,0.300553 -0.03422,0.329116 0.0096,0.02856 0.116587,0.102124 0.237652,0.163471 0.173436,0.08789 0.233055,0.100804 0.281134,0.0609 0.03356,-0.02785 0.06102,-0.07726 0.06102,-0.109796 0,-0.08338 0.07523,-0.07357 0.122637,0.01599 0.02614,0.04939 0.01513,0.190225 -0.03213,0.410869 -0.06897,0.322051 -0.07491,0.332403 -0.145618,0.254267 z m -0.654843,-1.067832 c 0.01639,-0.109299 0.04068,-0.227076 0.05397,-0.261725 0.02049,-0.05339 -0.02056,-0.05821 -0.269138,-0.03159 -0.550445,0.05895 -0.552458,0.062 -0.189069,0.287336 0.175874,0.109056 0.332069,0.199728 0.347101,0.201494 0.01503,0.0018 0.04074,-0.08622 0.05713,-0.195517 z m 19.635543,0.288101 c -0.0192,-0.07345 0.0588,-0.178388 1.11159,-1.494926 0.17435,-0.218036 0.317,-0.404253 0.317,-0.413814 0,-0.0356 -1.35638,0.324309 -1.44927,0.384555 -0.0573,0.03718 -0.0966,0.105925 -0.0966,0.169031 0,0.06398 -0.0247,0.106363 -0.0619,0.106363 -0.0805,0 -0.10238,-0.03923 -0.17345,-0.310809 -0.0325,-0.124276 -0.0722,-0.259774 -0.0883,-0.301104 -0.0415,-0.10714 0.06,-0.09565 0.18401,0.02081 l 0.10214,0.09596 0.80236,-0.202473 c 0.81687,-0.206131 0.93737,-0.264277 0.88562,-0.427332 -0.0281,-0.08848 0.0359,-0.103888 0.0985,-0.02372 0.0231,0.02952 0.0742,0.185182 0.11369,0.345911 l 0.0718,0.292233 -0.41681,0.545122 c -0.22925,0.299818 -0.47128,0.608596 -0.53785,0.686176 -0.0666,0.07758 -0.12103,0.155939 -0.12103,0.174131 0,0.05237 1.00078,-0.209022 1.08427,-0.283198 0.0413,-0.03672 0.0751,-0.112082 0.0751,-0.167466 0,-0.108856 0.0601,-0.133517 0.11464,-0.04702 0.0402,0.06383 0.19147,0.642174 0.17281,0.660833 -0.007,0.0071 -0.0797,-0.03457 -0.16132,-0.09263 l -0.14838,-0.105573 -0.87991,0.215943 c -0.48395,0.11877 -0.90216,0.223486 -0.92936,0.232701 -0.0272,0.0092 -0.0584,-0.01764 -0.0694,-0.05969 z M 24.713799,14.076243 c -0.01367,-0.06495 -0.04018,-0.147073 -0.05893,-0.1825 -0.03922,-0.07412 -1.394304,-0.640633 -1.537388,-0.642728 -0.05231,-8.12e-4 -0.11579,0.03726 -0.141069,0.08449 -0.05691,0.106338 -0.128824,0.111802 -0.128824,0.0098 0,-0.06614 0.525709,-1.408637 0.56828,-1.451206 0.02926,-0.02926 0.515815,0.186691 0.553068,0.245474 0.07392,0.116656 0.04475,0.165768 -0.07208,0.121348 -0.18333,-0.0697 -0.311379,-0.04786 -0.446816,0.07621 -0.0709,0.06495 -0.158556,0.19088 -0.194794,0.279847 -0.06398,0.15708 -0.06307,0.162835 0.03161,0.199042 0.05362,0.02051 0.221523,0.08778 0.37311,0.149495 0.151586,0.06172 0.282617,0.105205 0.29118,0.09664 0.0086,-0.0086 0.03287,-0.07588 0.05401,-0.149602 0.03278,-0.114291 0.02394,-0.14544 -0.05995,-0.211436 -0.09879,-0.07771 -0.187715,-0.267371 -0.125357,-0.267371 0.0696,0 0.768317,0.315686 0.798415,0.360728 0.07355,0.110072 0.03573,0.1511 -0.09672,0.104928 -0.176955,-0.06169 -0.317864,-0.01771 -0.379961,0.118571 -0.02855,0.06266 -0.04636,0.119203 -0.03957,0.125643 0.04605,0.04369 0.782119,0.31448 0.809251,0.297711 0.01864,-0.01152 0.06625,-0.118391 0.10581,-0.237499 0.08357,-0.251608 0.03876,-0.427427 -0.138556,-0.543606 -0.08827,-0.05784 -0.227395,-0.260117 -0.227395,-0.330622 0,-0.01238 0.140095,0.05115 0.311325,0.141205 0.171229,0.09005 0.338172,0.172593 0.370985,0.183421 0.04556,0.01503 -0.0077,0.188121 -0.225441,0.732342 -0.156808,0.391959 -0.285104,0.734055 -0.285104,0.760213 0,0.09803 -0.08522,0.04294 -0.109092,-0.07053 z m 17.668207,-1.245297 c -0.14777,-0.277509 -0.32417,-0.59869 -0.392,-0.713736 -0.0678,-0.115045 -0.11202,-0.220478 -0.0982,-0.234293 0.0138,-0.01381 0.09,0.0098 0.1692,0.05247 0.0828,0.0446 0.18054,0.06602 0.22982,0.05038 0.0472,-0.01496 0.38253,-0.18779 0.74526,-0.384049 l 0.65951,-0.356835 -0.005,-0.157044 c -0.008,-0.270552 0.0921,-0.196479 0.30273,0.223017 0.0872,0.173608 0.24422,0.470646 0.34901,0.660081 0.10478,0.189436 0.19051,0.349895 0.19051,0.356575 0,0.0067 -0.10864,0.07346 -0.24143,0.148404 -0.17636,0.09953 -0.27141,0.128734 -0.35263,0.10835 l -0.1112,-0.02791 0.15792,-0.136457 c 0.20837,-0.180065 0.23391,-0.308223 0.11602,-0.58226 -0.052,-0.120884 -0.1124,-0.219788 -0.13423,-0.219788 -0.0643,0 -0.67974,0.348193 -0.67974,0.384561 0,0.0183 0.039,0.0829 0.0868,0.14357 0.0717,0.0912 0.1118,0.106239 0.23135,0.08684 0.0795,-0.0129 0.17592,-0.0059 0.21422,0.0155 0.0545,0.03051 -0.0169,0.08336 -0.32886,0.243445 -0.25248,0.129558 -0.42569,0.194037 -0.47274,0.17598 -0.0972,-0.03728 -0.0945,-0.09298 0.006,-0.124864 0.13529,-0.04294 0.23316,-0.181777 0.20437,-0.289923 -0.0571,-0.214658 -0.0787,-0.214929 -0.46956,-0.0059 -0.20529,0.109788 -0.37326,0.219157 -0.37326,0.243046 0,0.02389 0.0476,0.124604 0.10571,0.223815 0.12518,0.2136 0.29873,0.300725 0.50337,0.252688 0.16213,-0.03806 0.29601,-0.02758 0.35354,0.02766 0.0234,0.0225 0.006,0.0491 -0.0429,0.06566 -0.0453,0.01532 -0.20527,0.08358 -0.35553,0.151703 -0.15026,0.06812 -0.27909,0.123861 -0.28628,0.123861 -0.007,0 -0.13398,-0.227051 -0.28175,-0.50456 z m -0.93915,-1.676485 c -0.39123,-0.299351 -0.58007,-0.540011 -0.67208,-0.856529 -0.10066,-0.3462274 -0.0331,-0.6229514 0.22097,-0.9055724 0.26472,-0.294429 0.54027,-0.4074 0.94398,-0.387013 0.3923,0.01981 0.65603,0.170834 0.89042,0.509881 0.0892,0.129073 0.21973,0.29452 0.29,0.36766 l 0.12776,0.1329804 -0.2573,0.199815 c -0.14152,0.109897 -0.29592,0.199815 -0.34313,0.199815 -0.10864,0 -0.10793,-0.0066 0.0215,-0.197322 0.13579,-0.200091 0.13589,-0.3690834 3.3e-4,-0.6003194 -0.3479,-0.593641 -1.12157,-0.423601 -1.44991,0.318665 -0.15621,0.3531414 -0.0277,0.8440244 0.26923,1.0280374 0.0762,0.04723 0.10726,0.04232 0.21432,-0.03391 0.0689,-0.04903 0.16707,-0.147951 0.21824,-0.219817 l 0.0931,-0.130666 -0.089,-0.12042 c -0.0885,-0.119688 -0.0837,-0.173069 0.0154,-0.173069 0.0285,0 0.20058,0.173912 0.38238,0.386471 0.26911,0.314657 0.31389,0.386472 0.241,0.386472 -0.0492,0 -0.12762,-0.02379 -0.17417,-0.05286 -0.0751,-0.04689 -0.11034,-0.02748 -0.3121,0.171764 -0.12509,0.123545 -0.24616,0.223827 -0.26904,0.222853 -0.0229,-9.74e-4 -0.18576,-0.112088 -0.36197,-0.246913 z m -15.5357,-0.03012 c -0.13615,-0.133062 -0.22544,-0.257541 -0.22544,-0.314288 0,-0.114881 0.006,-0.115159 0.18147,-0.0082 0.25777,0.157163 0.56037,0.09308 0.7226,-0.153031 0.10688,-0.162136 0.10537,-0.279886 -0.005,-0.420726 -0.13117,-0.166763 -0.29687,-0.148071 -0.75362,0.08502 -0.462642,0.236093 -0.6104,0.235368 -0.849942,-0.0042 -0.294816,-0.294814 -0.237672,-0.6330084 0.181053,-1.0715364 l 0.227614,-0.238377 0.189385,0.139283 c 0.12896,0.09484 0.18993,0.171584 0.19107,0.240497 0.001,0.08072 -0.0135,0.09446 -0.0735,0.06784 -0.0413,-0.01835 -0.15685,-0.04166 -0.25671,-0.05178 -0.157412,-0.01597 -0.198804,-0.0012 -0.31132,0.111354 -0.148776,0.148776 -0.165957,0.296878 -0.05092,0.438942 0.113083,0.1396514 0.272404,0.1183904 0.67262,-0.08976 0.29821,-0.155097 0.37071,-0.17606 0.54951,-0.158907 0.15143,0.01453 0.24058,0.05265 0.33663,0.143959 0.37728,0.3586524 0.33353,0.6693704 -0.16838,1.1958614 -0.15859,0.166354 -0.29801,0.303794 -0.30981,0.305423 -0.0118,0.0016 -0.12292,-0.09618 -0.24692,-0.217362 z m 1.70692,-1.4335854 c 0,-0.04434 0.029,-0.10468 0.0644,-0.134081 0.0354,-0.0294 0.0644,-0.07581 0.0644,-0.103128 0,-0.07563 -1.02262,-1.376393 -1.09435,-1.39201 -0.0753,-0.01638 -0.23644,0.232807 -0.23667,0.365908 -8e-5,0.05203 0.0202,0.139304 0.0451,0.193946 0.0269,0.059 0.0307,0.138807 0.009,0.196497 -0.0334,0.09027 -0.0495,0.07809 -0.22777,-0.171827 -0.1055,-0.147937 -0.19719,-0.280524 -0.20374,-0.294638 -0.0113,-0.02435 1.37572,-1.125348 1.44096,-1.143813 0.0621,-0.01758 0.35302,0.411017 0.35302,0.520082 0,0.137412 -0.0125,0.137905 -0.14464,0.0057 -0.12839,-0.12839 -0.30288,-0.177534 -0.44738,-0.126004 -0.24037,0.08572 -0.2214,0.135876 0.31143,0.823605 0.27707,0.357611 0.54189,0.662303 0.58849,0.677094 0.0504,0.016 0.11529,-7.63e-4 0.16018,-0.04139 0.0415,-0.03756 0.0884,-0.06828 0.10427,-0.06828 0.0536,0 0.0293,0.205346 -0.0269,0.226889 -0.0306,0.01175 -0.20425,0.139425 -0.38582,0.283713 -0.18158,0.144288 -0.34009,0.262343 -0.35225,0.262343 -0.0122,0 -0.0221,-0.03628 -0.0221,-0.08063 z m 11.27209,-0.828307 c -0.18894,-0.09605 -0.35263,-0.183092 -0.36375,-0.193425 -0.042,-0.039 0.10993,-0.09996 0.19781,-0.07937 0.0542,0.0127 0.11531,-0.007 0.14945,-0.04809 0.0601,-0.07244 0.55387,-1.260776 0.52385,-1.260776 -0.0289,0 -1.29345,1.025327 -1.3225,1.072338 -0.015,0.02427 -0.0669,0.04414 -0.11541,0.04414 -0.076,0 -0.0846,-0.01919 -0.0627,-0.13956 0.0449,-0.24643 0.16255,-1.530826 0.14825,-1.618162 -0.009,-0.05769 -0.12584,0.09731 -0.36808,0.490183 -0.19484,0.316007 -0.35426,0.604122 -0.35426,0.640257 0,0.03613 0.0417,0.104538 0.0926,0.152008 0.0853,0.07948 0.0867,0.0886 0.0172,0.115258 -0.0464,0.01782 -0.18933,-0.02615 -0.37176,-0.114403 -0.28268,-0.136751 -0.35988,-0.206153 -0.24264,-0.218123 0.0295,-0.003 0.0984,-0.0101 0.15315,-0.01574 0.0547,-0.0056 0.11601,-0.02733 0.13621,-0.0482 0.12345,-0.127502 0.85932,-1.340592 0.85932,-1.416605 0,-0.05078 -0.0435,-0.121878 -0.0966,-0.157996 -0.0883,-0.05999 -0.09,-0.0683 -0.0204,-0.09612 0.1048,-0.04188 0.65608,0.252042 0.64743,0.345187 -0.003,0.03774 -0.0395,0.384641 -0.08,0.770886 -0.0405,0.386245 -0.0666,0.722425 -0.058,0.747065 0.009,0.02464 0.30333,-0.188612 0.655,-0.473895 l 0.63941,-0.518696 0.3053,0.143916 c 0.36714,0.173061 0.34767,0.160864 0.31266,0.195877 -0.0156,0.01564 -0.0943,0.02596 -0.17488,0.02293 -0.0805,-0.003 -0.16573,0.01799 -0.18931,0.04671 -0.0635,0.07736 -0.60934,1.454948 -0.60934,1.537875 0,0.03915 0.0299,0.096 0.0664,0.126328 0.0531,0.04404 0.0552,0.06226 0.0107,0.09048 -0.0854,0.0542 -0.11663,0.04505 -0.48512,-0.142277 z m -9.1325,-0.496519 c -0.0313,-0.0382 -0.38223,-0.365619 -0.77982,-0.727595 -0.6684,-0.608532 -0.76903,-0.680899 -0.91962,-0.661344 -0.0295,0.0038 -0.0534,-0.0084 -0.053,-0.02712 0.002,-0.108031 0.10833,-0.170229 0.80449,-0.470972 0.0922,-0.03981 0.0588,0.106381 -0.0401,0.17563 -0.0833,0.05834 -0.0874,0.0766 -0.037,0.163465 0.0312,0.05378 0.28652,0.307526 0.56734,0.563873 l 0.51059,0.466084 -0.0237,-0.165495 c -0.013,-0.09102 -0.0403,-0.423844 -0.0607,-0.739602 -0.0393,-0.609359 -0.0654,-0.673216 -0.24731,-0.60406 -0.0712,0.02709 -0.10002,0.02289 -0.0995,-0.01452 10e-4,-0.09122 0.0571,-0.135692 0.29993,-0.2383 0.1299,-0.05489 0.26113,-0.110403 0.29162,-0.123358 0.0409,-0.01737 0.0367,0.0233 -0.016,0.154963 -0.0647,0.161784 -0.0667,0.269283 -0.0205,1.146723 0.028,0.532511 0.0601,0.992168 0.0713,1.021459 0.0113,0.02929 -0.0272,0.07494 -0.0853,0.101439 -0.0858,0.03909 -0.1165,0.03508 -0.16269,-0.02127 z m 1.12395,-0.563888 c 0,-0.05393 0.12178,-0.177726 0.17483,-0.177726 0.0219,0 0.0396,-0.0628 0.0392,-0.139559 -0.001,-0.225082 -0.25021,-1.539667 -0.3041,-1.604593 -0.0271,-0.03266 -0.0946,-0.05938 -0.15003,-0.05938 -0.16113,0 -0.077,-0.122415 0.10468,-0.152273 0.0863,-0.01418 0.35869,-0.06499 0.60534,-0.112897 0.61402,-0.119271 0.96742,-0.09779 1.21132,0.07363 0.23705,0.166604 0.38319,0.451608 0.41098,0.801487 0.0289,0.364152 -0.0434,0.60408 -0.24944,0.827619 -0.21969,0.238335 -0.48406,0.348852 -1.03103,0.431004 -0.426,0.06399 -0.5754,0.09138 -0.73661,0.13509 -0.0413,0.0112 -0.0751,0.0011 -0.0751,-0.0224 z m 1.29085,-0.393766 c 0.23786,-0.121344 0.35461,-0.310413 0.37623,-0.609253 0.0456,-0.630469 -0.44597,-1.201987 -0.97166,-1.129686 -0.35014,0.04816 -0.3409,0.0024 -0.18401,0.910043 0.18593,1.075553 0.14281,0.974474 0.40105,0.940218 0.11906,-0.01579 0.28934,-0.06589 0.37839,-0.111322 z m 3.41424,0.205305 c -0.009,-0.02952 -0.119,-0.487676 -0.24518,-1.018119 -0.16784,-0.705616 -0.25535,-0.995269 -0.32606,-1.079307 -0.14672,-0.174368 -0.0574,-0.218952 0.28965,-0.144569 0.15322,0.03284 0.34023,0.06038 0.4156,0.06122 0.27223,0.003 0.17961,0.144102 -0.11048,0.16832 -0.075,0.0063 -0.0571,0.132206 0.13276,0.933019 l 0.14368,0.606006 0.35307,-0.612162 c 0.19418,-0.336689 0.35306,-0.642591 0.35306,-0.679782 0,-0.03719 -0.0497,-0.09368 -0.11051,-0.125523 -0.0884,-0.04634 -0.0991,-0.06735 -0.0535,-0.105191 0.0403,-0.03348 0.11963,-0.03464 0.27154,-0.004 0.11801,0.02382 0.25883,0.05178 0.31294,0.06214 0.11389,0.02181 0.0875,0.09079 -0.0555,0.14517 -0.0663,0.02519 -0.25562,0.298169 -0.57158,0.823971 -0.25988,0.432465 -0.49671,0.839439 -0.52629,0.904388 -0.0567,0.124438 -0.24266,0.168293 -0.27316,0.06441 z m -2.11431,-0.182501 c 0.008,-0.02362 0.0602,-0.06617 0.11663,-0.09455 0.0565,-0.02839 0.11639,-0.08636 0.13315,-0.128824 0.0168,-0.04247 0.0318,-0.440462 0.0335,-0.884434 l 0.003,-0.807223 -0.13425,-0.05645 c -0.2121,-0.08918 -0.0731,-0.132641 0.42408,-0.132641 0.44477,0 0.51802,0.0328 0.30796,0.137895 -0.14076,0.07042 -0.15741,0.174774 -0.1633,1.023667 -0.005,0.783004 0.007,0.835209 0.20595,0.835209 0.10289,0 0.10443,0.0035 0.0326,0.07515 -0.0621,0.06197 -0.15403,0.07515 -0.52433,0.07515 -0.28,0 -0.44374,-0.01616 -0.43504,-0.04294 z"
       id="path847" />
  </g>
</svg>
