<?xml version="1.0" encoding="UTF-8" standalone="no"?>
<svg
   inkscape:version="1.1.1 (3bf5ae0d25, 2021-09-20, custom)"
   id="svg8"
   version="1.1"
   viewBox="0 0 67.733332 33.866668"
   height="128"
   width="256"
   sodipodi:docname="winehq.svg"
   xmlns:inkscape="http://www.inkscape.org/namespaces/inkscape"
   xmlns:sodipodi="http://sodipodi.sourceforge.net/DTD/sodipodi-0.dtd"
   xmlns:xlink="http://www.w3.org/1999/xlink"
   xmlns="http://www.w3.org/2000/svg"
   xmlns:svg="http://www.w3.org/2000/svg"
   xmlns:rdf="http://www.w3.org/1999/02/22-rdf-syntax-ns#"
   xmlns:cc="http://creativecommons.org/ns#"
   xmlns:dc="http://purl.org/dc/elements/1.1/">
  <defs
     id="defs2">
    <linearGradient
       inkscape:collect="always"
       id="linearGradient3011">
      <stop
         style="stop-color:#6e0a0c;stop-opacity:1"
         offset="0"
         id="stop3007" />
      <stop
         style="stop-color:#000000;stop-opacity:1"
         offset="1"
         id="stop3009" />
    </linearGradient>
    <linearGradient
       inkscape:collect="always"
       xlink:href="#linearGradient3011"
       id="linearGradient3013"
       x1="55.804325"
       y1="-0.086498827"
       x2="55.804325"
       y2="41.340302"
       gradientUnits="userSpaceOnUse" />
  </defs>
  <sodipodi:namedview
     units="px"
     showgrid="false"
     inkscape:document-rotation="0"
     inkscape:current-layer="layer1"
     inkscape:document-units="px"
     inkscape:cy="63.134534"
     inkscape:cx="144.57808"
     inkscape:zoom="3.959798"
     inkscape:pageshadow="2"
     inkscape:pageopacity="0"
     borderopacity="1.0"
     bordercolor="#666666"
     pagecolor="#ffffff"
     id="base"
     inkscape:window-width="2560"
     inkscape:window-height="1371"
     inkscape:window-x="0"
     inkscape:window-y="32"
     inkscape:window-maximized="1"
     inkscape:pagecheckerboard="0" />
  <metadata
     id="metadata5">
    <rdf:RDF>
      <cc:Work
         rdf:about="">
        <dc:format>image/svg+xml</dc:format>
        <dc:type
           rdf:resource="http://purl.org/dc/dcmitype/StillImage" />
      </cc:Work>
    </rdf:RDF>
  </metadata>
  <g
     id="layer1"
     inkscape:groupmode="layer"
     inkscape:label="Layer 1">
    <rect
       style="fill:url(#linearGradient3013);stroke-width:3.47907;stroke-linecap:round;paint-order:markers stroke fill;fill-opacity:1"
       id="rect848"
       width="67.733337"
       height="33.866669"
       x="-1.7011719e-06"
       y="-8.5058593e-07" />
    <path
       d="m 32.106427,9.4923495 -1.212793,6.4035475 1.431096,4.68138 3.27454,-1.091514 1.988981,-2.134515 2.619633,-6.549082 -0.776188,-0.751932 -4.39031,1.431096 z"
       style="fill:#992b2b;stroke-width:0.0649951"
       id="path2186" />
    <path
       d="m 34.881314,4.2333505 c -0.716377,-0.00165 -1.267238,0.1154996 -1.494887,0.3676285 -0.36117,0.400008 -1.192445,3.3829958 -2.230144,7.941588 -0.748675,3.280334 -0.229248,5.193361 0.282323,6.217186 0.65403,1.308935 1.163752,2.095967 0.12999,4.708082 -0.748691,1.891797 -1.512569,2.25387 -2.22202,2.343885 -1.709746,-0.411142 -2.999996,-0.425873 -3.16851,0.03656 -0.230516,0.632578 1.720332,1.914795 4.354671,2.863846 2.634338,0.949051 4.960966,1.207379 5.191483,0.574801 0.169065,-0.463945 -0.838371,-1.277925 -2.42513,-2.053439 -0.69658,-0.717727 -1.321413,-1.217627 -0.769785,-3.440678 1.079144,-4.34893 2.725268,-2.854233 4.665428,-5.55708 1.645765,-2.292722 2.081545,-4.051813 3.034459,-6.739178 C 41.238833,8.6492106 41.682126,7.3310871 41.551436,7.0707924 40.671201,5.3176343 37.030448,4.2383011 34.881314,4.2333505 Z m 0.148271,0.5971424 c 0.80066,0.00702 1.818476,0.1817578 2.644487,0.4773077 1.770253,0.6334029 3.367874,1.5186918 3.274128,2.0493764 -0.236932,1.3412287 -0.754029,2.4368285 -0.885558,2.8151 -1.731157,-1.6743809 -3.954214,3.322511 -7.51912,-0.8124388 0,10e-8 0.681678,-2.6267877 1.151632,-4.1251571 0.08979,-0.2862834 0.627966,-0.4103821 1.334431,-0.4041882 z m -2.607928,5.1955451 c 3.606651,3.946482 6.124619,-0.9853491 7.446,0.727132 -0.45252,1.486248 -3.179735,10.485331 -6.814329,8.877924 -3.010827,-1.312413 -1.267223,-8.003989 -0.631671,-9.605056 z"
       style="fill:#ffffff;stroke-width:0.0649951"
       id="path2175" />
  </g>
  <style
     type="text/css"
     id="style825">
	.st0{fill:#1A2233;}
	.st1{fill:#F50057;}
	.st2{fill:#FFFFFF;}
</style>
</svg>
